<?xml version="1.0" encoding="UTF-8" standalone="no"?>
<!-- Created with Inkscape (http://www.inkscape.org/) -->

<svg
   width="27cm"
   height="5cm"
   viewBox="0 0 270 49.999999"
   version="1.1"
   id="svg5"
   inkscape:version="1.1.2 (0a00cf5339, 2022-02-04)"
   sodipodi:docname="schéma2.svg"
   inkscape:export-filename="/home/arnaud/Documents/mkdocs/Les_cours/std2a_2122/docs/Chapitre_5/Evaluation/Éval_1/images/schéma2.png"
   inkscape:export-xdpi="96"
   inkscape:export-ydpi="96"
   xmlns:inkscape="http://www.inkscape.org/namespaces/inkscape"
   xmlns:sodipodi="http://sodipodi.sourceforge.net/DTD/sodipodi-0.dtd"
   xmlns="http://www.w3.org/2000/svg"
   xmlns:svg="http://www.w3.org/2000/svg">
  <sodipodi:namedview
     id="namedview7"
     pagecolor="#ffffff"
     bordercolor="#666666"
     borderopacity="1.0"
     inkscape:pageshadow="2"
     inkscape:pageopacity="0.0"
     inkscape:pagecheckerboard="0"
     inkscape:document-units="mm"
     showgrid="true"
     units="cm"
     height="5cm"
     inkscape:zoom="0.5007929"
     inkscape:cx="617.02153"
     inkscape:cy="-114.81792"
     inkscape:window-width="1920"
     inkscape:window-height="1011"
     inkscape:window-x="0"
     inkscape:window-y="0"
     inkscape:window-maximized="1"
     inkscape:current-layer="layer1"
     inkscape:showpageshadow="false"
     inkscape:snap-global="false">
    <inkscape:grid
       type="xygrid"
       id="grid927"
       units="mm"
       spacingx="0.99999997"
       spacingy="0.99999997" />
  </sodipodi:namedview>
  <defs
     id="defs2">
    <marker
       style="overflow:visible"
       id="marker1659"
       refX="0"
       refY="0"
       orient="auto"
       inkscape:stockid="Arrow1Mstart"
       inkscape:isstock="true">
      <path
         transform="matrix(0.4,0,0,0.4,4,0)"
         style="fill:context-stroke;fill-rule:evenodd;stroke:context-stroke;stroke-width:1pt"
         d="M 0,0 5,-5 -12.5,0 5,5 Z"
         id="path1657" />
    </marker>
    <marker
       style="overflow:visible"
       id="Arrow1Mend"
       refX="0"
       refY="0"
       orient="auto"
       inkscape:stockid="Arrow1Mend"
       inkscape:isstock="true">
      <path
         transform="matrix(-0.4,0,0,-0.4,-4,0)"
         style="fill:context-stroke;fill-rule:evenodd;stroke:context-stroke;stroke-width:1pt"
         d="M 0,0 5,-5 -12.5,0 5,5 Z"
         id="path1057" />
    </marker>
    <marker
       style="overflow:visible"
       id="Arrow1Mstart"
       refX="0"
       refY="0"
       orient="auto"
       inkscape:stockid="Arrow1Mstart"
       inkscape:isstock="true">
      <path
         transform="matrix(0.4,0,0,0.4,4,0)"
         style="fill:context-stroke;fill-rule:evenodd;stroke:context-stroke;stroke-width:1pt"
         d="M 0,0 5,-5 -12.5,0 5,5 Z"
         id="path1054" />
    </marker>
    <marker
       style="overflow:visible"
       id="marker1659-5"
       refX="0"
       refY="0"
       orient="auto"
       inkscape:stockid="Arrow1Mstart"
       inkscape:isstock="true">
      <path
         transform="matrix(0.4,0,0,0.4,4,0)"
         style="fill:context-stroke;fill-rule:evenodd;stroke:context-stroke;stroke-width:1pt"
         d="M 0,0 5,-5 -12.5,0 5,5 Z"
         id="path1657-3" />
    </marker>
    <marker
       style="overflow:visible"
       id="marker1659-5-6"
       refX="0"
       refY="0"
       orient="auto"
       inkscape:stockid="Arrow1Mstart"
       inkscape:isstock="true">
      <path
         transform="matrix(0.4,0,0,0.4,4,0)"
         style="fill:context-stroke;fill-rule:evenodd;stroke:context-stroke;stroke-width:1pt"
         d="M 0,0 5,-5 -12.5,0 5,5 Z"
         id="path1657-3-2" />
    </marker>
    <marker
       style="overflow:visible"
       id="marker1659-5-1"
       refX="0"
       refY="0"
       orient="auto"
       inkscape:stockid="Arrow1Mstart"
       inkscape:isstock="true">
      <path
         transform="matrix(0.4,0,0,0.4,4,0)"
         style="fill:context-stroke;fill-rule:evenodd;stroke:context-stroke;stroke-width:1pt"
         d="M 0,0 5,-5 -12.5,0 5,5 Z"
         id="path1657-3-27" />
    </marker>
    <marker
       style="overflow:visible"
       id="marker1659-5-9"
       refX="0"
       refY="0"
       orient="auto"
       inkscape:stockid="Arrow1Mstart"
       inkscape:isstock="true">
      <path
         transform="matrix(0.4,0,0,0.4,4,0)"
         style="fill:context-stroke;fill-rule:evenodd;stroke:context-stroke;stroke-width:1pt"
         d="M 0,0 5,-5 -12.5,0 5,5 Z"
         id="path1657-3-3" />
    </marker>
    <marker
       style="overflow:visible"
       id="Arrow1Mstart-2"
       refX="0"
       refY="0"
       orient="auto"
       inkscape:stockid="Arrow1Mstart"
       inkscape:isstock="true">
      <path
         transform="matrix(0.4,0,0,0.4,4,0)"
         style="fill:context-stroke;fill-rule:evenodd;stroke:context-stroke;stroke-width:1pt"
         d="M 0,0 5,-5 -12.5,0 5,5 Z"
         id="path1054-9" />
    </marker>
    <marker
       style="overflow:visible"
       id="Arrow1Mend-1"
       refX="0"
       refY="0"
       orient="auto"
       inkscape:stockid="Arrow1Mend"
       inkscape:isstock="true">
      <path
         transform="matrix(-0.4,0,0,-0.4,-4,0)"
         style="fill:context-stroke;fill-rule:evenodd;stroke:context-stroke;stroke-width:1pt"
         d="M 0,0 5,-5 -12.5,0 5,5 Z"
         id="path1057-2" />
    </marker>
    <marker
       style="overflow:visible"
       id="Arrow1Mstart-7"
       refX="0"
       refY="0"
       orient="auto"
       inkscape:stockid="Arrow1Mstart"
       inkscape:isstock="true">
      <path
         transform="matrix(0.4,0,0,0.4,4,0)"
         style="fill:context-stroke;fill-rule:evenodd;stroke:context-stroke;stroke-width:1pt"
         d="M 0,0 5,-5 -12.5,0 5,5 Z"
         id="path1054-5" />
    </marker>
    <marker
       style="overflow:visible"
       id="Arrow1Mend-9"
       refX="0"
       refY="0"
       orient="auto"
       inkscape:stockid="Arrow1Mend"
       inkscape:isstock="true">
      <path
         transform="matrix(-0.4,0,0,-0.4,-4,0)"
         style="fill:context-stroke;fill-rule:evenodd;stroke:context-stroke;stroke-width:1pt"
         d="M 0,0 5,-5 -12.5,0 5,5 Z"
         id="path1057-22" />
    </marker>
    <clipPath
       clipPathUnits="userSpaceOnUse"
       id="clipPath11895">
      <rect
         style="opacity:0.405735;fill:#000000;fill-opacity:0.0417831;stroke:#000000;stroke-width:0.0964795;stroke-linecap:round;stroke-linejoin:round;stroke-miterlimit:4;stroke-dasharray:none"
         id="rect11897"
         width="79.959373"
         height="50.268505"
         x="49.95076"
         y="-88.084328" />
    </clipPath>
    <clipPath
       clipPathUnits="userSpaceOnUse"
       id="clipPath11899">
      <rect
         style="opacity:0.405735;fill:#000000;fill-opacity:0.0417831;stroke:#000000;stroke-width:0.0964795;stroke-linecap:round;stroke-linejoin:round;stroke-miterlimit:4;stroke-dasharray:none"
         id="rect11901"
         width="79.959373"
         height="50.268505"
         x="49.880592"
         y="-135.89137" />
    </clipPath>
    <clipPath
       clipPathUnits="userSpaceOnUse"
       id="clipPath11903">
      <rect
         style="opacity:0.405735;fill:#000000;fill-opacity:0.0417831;stroke:#000000;stroke-width:0.0964795;stroke-linecap:round;stroke-linejoin:round;stroke-miterlimit:4;stroke-dasharray:none"
         id="rect11905"
         width="79.959373"
         height="50.268505"
         x="49.295551"
         y="-181.74335" />
    </clipPath>
  </defs>
  <g
     inkscape:label="Calque 1"
     inkscape:groupmode="layer"
     id="layer1">
    <g
       id="g11733"
       transform="translate(135.30894,135.29862)"
       clip-path="url(#clipPath11899)">
      <path
         style="fill:none;stroke:#000000;stroke-width:0.3;stroke-linecap:butt;stroke-linejoin:miter;stroke-miterlimit:4;stroke-dasharray:none;stroke-opacity:1"
         d="M -5.2178613,-110.18297 H 194.78213"
         id="path962" />
      <path
         style="fill:none;stroke:#000000;stroke-width:0.5;stroke-linecap:butt;stroke-linejoin:miter;stroke-miterlimit:4;stroke-dasharray:none;stroke-opacity:1;marker-start:url(#Arrow1Mstart);marker-end:url(#Arrow1Mend)"
         d="m 89.782134,-130.18297 v 39.999999"
         id="path964" />
      <path
         style="fill:none;stroke:#000000;stroke-width:0.4;stroke-linecap:round;stroke-linejoin:miter;stroke-miterlimit:4;stroke-dasharray:none;stroke-opacity:1"
         d="m 69.763694,-111.20377 v 2"
         id="path966" />
      <path
         style="fill:none;stroke:#000000;stroke-width:0.4;stroke-linecap:round;stroke-linejoin:miter;stroke-miterlimit:4;stroke-dasharray:none;stroke-opacity:1"
         d="m 109.82439,-111.13618 v 2"
         id="path966-3" />
      <path
         style="fill:none;stroke:#000000;stroke-width:0.1;stroke-linecap:butt;stroke-linejoin:miter;stroke-miterlimit:4;stroke-dasharray:none;stroke-opacity:1"
         d="M 89.997578,-125.06663 H 149.72913"
         id="path1610"
         sodipodi:nodetypes="cc" />
      <path
         style="fill:none;stroke:#000000;stroke-width:0.1;stroke-linecap:butt;stroke-linejoin:miter;stroke-miterlimit:4;stroke-dasharray:none;stroke-opacity:1"
         d="M 89.997578,-95.17509 H 149.72913"
         id="path1610-3"
         sodipodi:nodetypes="cc" />
      <path
         style="fill:none;stroke:#000000;stroke-width:0.1;stroke-linecap:butt;stroke-linejoin:miter;stroke-miterlimit:4;stroke-dasharray:none;stroke-opacity:1"
         d="M 89.997578,-102.69714 H 149.72912"
         id="path1610-6"
         sodipodi:nodetypes="cc" />
      <path
         style="fill:none;stroke:#000000;stroke-width:0.1;stroke-linecap:butt;stroke-linejoin:miter;stroke-miterlimit:4;stroke-dasharray:none;stroke-opacity:1"
         d="M 89.997578,-117.5008 H 149.72913"
         id="path1610-7"
         sodipodi:nodetypes="cc" />
      <text
         xml:space="preserve"
         style="font-weight:200;font-size:2.97245px;line-height:1.25;font-family:'DejaVu Sans';-inkscape-font-specification:'DejaVu Sans, Ultra-Light';stroke-width:0.185778"
         x="90.743134"
         y="-112.16412"
         id="text3064"><tspan
           sodipodi:role="line"
           id="tspan3062"
           style="stroke-width:0.185778"
           x="90.743134"
           y="-112.16412">O</tspan></text>
      <text
         xml:space="preserve"
         style="font-weight:200;font-size:2.97245px;line-height:1.25;font-family:'DejaVu Sans';-inkscape-font-specification:'DejaVu Sans, Ultra-Light';stroke-width:0.185778"
         x="108.55079"
         y="-112.16267"
         id="text3064-5"><tspan
           sodipodi:role="line"
           id="tspan3062-3"
           style="stroke-width:0.185778"
           x="108.55079"
           y="-112.16267">F'</tspan></text>
      <text
         xml:space="preserve"
         style="font-weight:200;font-size:2.97245px;line-height:1.25;font-family:'DejaVu Sans';-inkscape-font-specification:'DejaVu Sans, Ultra-Light';stroke-width:0.185778"
         x="68.851501"
         y="-112.16267"
         id="text3064-5-5"><tspan
           sodipodi:role="line"
           id="tspan3062-3-6"
           style="stroke-width:0.185778"
           x="68.851501"
           y="-112.16267">F</tspan></text>
    </g>
    <g
       id="g11717"
       transform="translate(44.755232,88.463604)"
       clip-path="url(#clipPath11895)">
      <path
         style="fill:none;stroke:#000000;stroke-width:0.3;stroke-linecap:butt;stroke-linejoin:miter;stroke-miterlimit:4;stroke-dasharray:none;stroke-opacity:1"
         d="M -5.1605053,-63.51235 H 194.83948"
         id="path962-0" />
      <path
         style="fill:none;stroke:#000000;stroke-width:0.5;stroke-linecap:butt;stroke-linejoin:miter;stroke-miterlimit:4;stroke-dasharray:none;stroke-opacity:1;marker-start:url(#Arrow1Mstart-2);marker-end:url(#Arrow1Mend-1)"
         d="M 89.83949,-83.512349 V -43.51235"
         id="path964-9" />
      <path
         style="fill:none;stroke:#000000;stroke-width:0.4;stroke-linecap:round;stroke-linejoin:miter;stroke-miterlimit:4;stroke-dasharray:none;stroke-opacity:1"
         d="m 69.82105,-64.533145 v 2"
         id="path966-36" />
      <path
         style="fill:none;stroke:#000000;stroke-width:0.4;stroke-linecap:round;stroke-linejoin:miter;stroke-miterlimit:4;stroke-dasharray:none;stroke-opacity:1"
         d="m 109.88174,-64.465561 v 2"
         id="path966-3-0" />
      <g
         id="g11628">
        <g
           id="g11489">
          <path
             style="fill:none;stroke:#000000;stroke-width:0.1;stroke-linecap:butt;stroke-linejoin:miter;stroke-miterlimit:4;stroke-dasharray:none;stroke-opacity:1"
             d="m 30.272764,-78.396006 59.500579,14.758381"
             id="path1610-62"
             sodipodi:nodetypes="cc" />
          <g
             id="g11483">
            <g
               id="g11366">
              <path
                 style="fill:none;stroke:#000000;stroke-width:0.1;stroke-linecap:butt;stroke-linejoin:miter;stroke-miterlimit:4;stroke-dasharray:none;stroke-opacity:1"
                 d="m 30.236618,-90.150676 59.686577,26.608891"
                 id="path1610-6-1"
                 sodipodi:nodetypes="cc" />
            </g>
          </g>
        </g>
        <path
           style="fill:none;stroke:#000000;stroke-width:0.1;stroke-linecap:butt;stroke-linejoin:miter;stroke-miterlimit:4;stroke-dasharray:none;stroke-opacity:1"
           d="m 29.9145,-70.830181 59.941325,7.192225"
           id="path1610-7-8"
           sodipodi:nodetypes="cc" />
      </g>
      <g
         id="g11628-5"
         transform="matrix(-1,0,0,1,179.7586,0.04470756)">
        <g
           id="g11489-4">
          <path
             style="fill:none;stroke:#000000;stroke-width:0.1;stroke-linecap:butt;stroke-linejoin:miter;stroke-miterlimit:4;stroke-dasharray:none;stroke-opacity:1"
             d="m 30.272764,-78.396006 59.500579,14.758381"
             id="path1610-62-7"
             sodipodi:nodetypes="cc" />
          <g
             id="g11483-6">
            <g
               id="g11366-5">
              <path
                 style="fill:none;stroke:#000000;stroke-width:0.1;stroke-linecap:butt;stroke-linejoin:miter;stroke-miterlimit:4;stroke-dasharray:none;stroke-opacity:1"
                 d="m 30.236618,-90.150676 59.686577,26.608891"
                 id="path1610-6-1-6"
                 sodipodi:nodetypes="cc" />
            </g>
          </g>
        </g>
        <path
           style="fill:none;stroke:#000000;stroke-width:0.1;stroke-linecap:butt;stroke-linejoin:miter;stroke-miterlimit:4;stroke-dasharray:none;stroke-opacity:1"
           d="m 29.9145,-70.830181 59.941325,7.192225"
           id="path1610-7-8-9"
           sodipodi:nodetypes="cc" />
      </g>
      <text
         xml:space="preserve"
         style="font-weight:200;font-size:2.97245px;line-height:1.25;font-family:'DejaVu Sans';-inkscape-font-specification:'DejaVu Sans, Ultra-Light';stroke-width:0.185778"
         x="90.800484"
         y="-65.4935"
         id="text3064-7"><tspan
           sodipodi:role="line"
           id="tspan3062-9"
           style="stroke-width:0.185778"
           x="90.800484"
           y="-65.4935">O</tspan></text>
      <text
         xml:space="preserve"
         style="font-weight:200;font-size:2.97245px;line-height:1.25;font-family:'DejaVu Sans';-inkscape-font-specification:'DejaVu Sans, Ultra-Light';stroke-width:0.185778"
         x="108.60814"
         y="-65.49205"
         id="text3064-5-2"><tspan
           sodipodi:role="line"
           id="tspan3062-3-0"
           style="stroke-width:0.185778"
           x="108.60814"
           y="-65.49205">F'</tspan></text>
      <text
         xml:space="preserve"
         style="font-weight:200;font-size:2.97245px;line-height:1.25;font-family:'DejaVu Sans';-inkscape-font-specification:'DejaVu Sans, Ultra-Light';stroke-width:0.185778"
         x="68.908852"
         y="-65.49205"
         id="text3064-5-5-2"><tspan
           sodipodi:role="line"
           id="tspan3062-3-6-3"
           style="stroke-width:0.185778"
           x="68.908852"
           y="-65.49205">F</tspan></text>
    </g>
    <g
       id="g11749"
       transform="translate(-44.402324,180.93096)"
       clip-path="url(#clipPath11903)">
      <path
         style="fill:none;stroke:#000000;stroke-width:0.3;stroke-linecap:butt;stroke-linejoin:miter;stroke-miterlimit:4;stroke-dasharray:none;stroke-opacity:1"
         d="M -5.2144993,-156.28108 H 194.78549"
         id="path962-9" />
      <path
         style="fill:none;stroke:#000000;stroke-width:0.5;stroke-linecap:butt;stroke-linejoin:miter;stroke-miterlimit:4;stroke-dasharray:none;stroke-opacity:1;marker-start:url(#Arrow1Mstart-7);marker-end:url(#Arrow1Mend-9)"
         d="m 89.785496,-176.28108 v 40"
         id="path964-7" />
      <path
         style="fill:none;stroke:#000000;stroke-width:0.4;stroke-linecap:round;stroke-linejoin:miter;stroke-miterlimit:4;stroke-dasharray:none;stroke-opacity:1"
         d="m 69.767056,-157.30188 v 2"
         id="path966-361" />
      <path
         style="fill:none;stroke:#000000;stroke-width:0.4;stroke-linecap:round;stroke-linejoin:miter;stroke-miterlimit:4;stroke-dasharray:none;stroke-opacity:1"
         d="m 109.82775,-157.23429 v 2"
         id="path966-3-2" />
      <path
         style="fill:none;stroke:#000000;stroke-width:0.1;stroke-linecap:butt;stroke-linejoin:miter;stroke-miterlimit:4;stroke-dasharray:none;stroke-opacity:1"
         d="M 29.675906,-171.16474 H 89.407177"
         id="path1610-9"
         sodipodi:nodetypes="cc" />
      <path
         style="fill:none;stroke:#000000;stroke-width:0.1;stroke-linecap:butt;stroke-linejoin:miter;stroke-miterlimit:4;stroke-dasharray:none;stroke-opacity:1"
         d="M 29.675902,-141.2732 H 89.407177"
         id="path1610-3-3"
         sodipodi:nodetypes="cc" />
      <path
         style="fill:none;stroke:#000000;stroke-width:0.1;stroke-linecap:butt;stroke-linejoin:miter;stroke-miterlimit:4;stroke-dasharray:none;stroke-opacity:1"
         d="M 29.675909,-148.79524 H 89.407177"
         id="path1610-6-19"
         sodipodi:nodetypes="cc" />
      <path
         style="fill:none;stroke:#000000;stroke-width:0.1;stroke-linecap:butt;stroke-linejoin:miter;stroke-miterlimit:4;stroke-dasharray:none;stroke-opacity:1"
         d="M 29.675906,-163.59891 H 89.407177"
         id="path1610-7-4"
         sodipodi:nodetypes="cc" />
      <text
         xml:space="preserve"
         style="font-weight:200;font-size:2.97245px;line-height:1.25;font-family:'DejaVu Sans';-inkscape-font-specification:'DejaVu Sans, Ultra-Light';stroke-width:0.185778"
         x="90.74649"
         y="-158.26224"
         id="text3064-78"><tspan
           sodipodi:role="line"
           id="tspan3062-4"
           style="stroke-width:0.185778"
           x="90.74649"
           y="-158.26224">O</tspan></text>
      <text
         xml:space="preserve"
         style="font-weight:200;font-size:2.97245px;line-height:1.25;font-family:'DejaVu Sans';-inkscape-font-specification:'DejaVu Sans, Ultra-Light';stroke-width:0.185778"
         x="108.55415"
         y="-158.26077"
         id="text3064-5-50"><tspan
           sodipodi:role="line"
           id="tspan3062-3-3"
           style="stroke-width:0.185778"
           x="108.55415"
           y="-158.26077">F'</tspan></text>
      <text
         xml:space="preserve"
         style="font-weight:200;font-size:2.97245px;line-height:1.25;font-family:'DejaVu Sans';-inkscape-font-specification:'DejaVu Sans, Ultra-Light';stroke-width:0.185778"
         x="68.854858"
         y="-158.26077"
         id="text3064-5-5-6"><tspan
           sodipodi:role="line"
           id="tspan3062-3-6-1"
           style="stroke-width:0.185778"
           x="68.854858"
           y="-158.26077">F</tspan></text>
    </g>
  </g>
</svg>
