<?xml version="1.0" encoding="UTF-8" standalone="no"?>
<!-- Created with Inkscape (http://www.inkscape.org/) -->

<svg
   width="150mm"
   height="100mm"
   viewBox="0 0 150 100"
   version="1.1"
   id="svg5"
   inkscape:version="1.1 (c4e8f9ed74, 2021-05-24)"
   sodipodi:docname="sensibilité_oeil.svg"
   xmlns:inkscape="http://www.inkscape.org/namespaces/inkscape"
   xmlns:sodipodi="http://sodipodi.sourceforge.net/DTD/sodipodi-0.dtd"
   xmlns:xlink="http://www.w3.org/1999/xlink"
   xmlns="http://www.w3.org/2000/svg"
   xmlns:svg="http://www.w3.org/2000/svg">
  <sodipodi:namedview
     id="namedview7"
     pagecolor="#ffffff"
     bordercolor="#666666"
     borderopacity="1.0"
     inkscape:pageshadow="2"
     inkscape:pageopacity="0.0"
     inkscape:pagecheckerboard="0"
     inkscape:document-units="mm"
     showgrid="false"
     inkscape:zoom="0.96882954"
     inkscape:cx="148.63296"
     inkscape:cy="287.46027"
     inkscape:window-width="1920"
     inkscape:window-height="1011"
     inkscape:window-x="0"
     inkscape:window-y="0"
     inkscape:window-maximized="1"
     inkscape:current-layer="layer5"
     inkscape:snap-global="false">
    <sodipodi:guide
       position="0,99.999999"
       orientation="0,566.92913"
       id="guide186145" />
    <sodipodi:guide
       position="150,99.999999"
       orientation="377.95276,0"
       id="guide186147" />
    <sodipodi:guide
       position="150,0"
       orientation="0,-566.92913"
       id="guide186149" />
    <sodipodi:guide
       position="0,0"
       orientation="-377.95276,0"
       id="guide186151" />
  </sodipodi:namedview>
  <defs
     id="defs2" />
  <g
     inkscape:label="modèle1"
     inkscape:groupmode="layer"
     id="layer1"
     style="display:none;opacity:0.20387">
    <image
       width="145.52083"
       height="91.54583"
       preserveAspectRatio="none"
       xlink:href="data:image/png;base64,iVBORw0KGgoAAAANSUhEUgAAAiYAAAFaCAYAAAAqxpZhAAAABGdBTUEAALGPC/xhBQAAACBjSFJN AAB6JgAAgIQAAPoAAACA6AAAdTAAAOpgAAA6mAAAF3CculE8AAAABmJLR0QA/wD/AP+gvaeTAAAA B3RJTUUH4QgKAAsCQ/txxQAAa31JREFUeNrt3XeYHVX5wPHP7KYRCKEXpQvSRZqCSokCuwkgKBiF hKqADVBQwB5FBduPIgpIk2QTJKCIQPYuQQMWBAWkdysg0ntJ2Z3fH2eWbJaUTbK7d+7d9/s8++y9 c+fOPfPOmTnvec9bCIIgCIIgCIIgCIIgCIIgCIIgCIIgCIIgCIIgCIIgCIIgCIIgCIIgCIIgCIIg CIIgCIIgCHrC3iGCIAiCIAjKQh4iCIIgCILy0xAiCIIgCIIgFJMgCIIgCIJQTIIgCIIgCMUkCIIg CIIgFJMgCIIgCEIxCYIgCIIgCMUkCIIgCIJQTIIgCIIgCEIxCYIgCIIgFJMgCIIgCIJQTIIgCIIg CMUkCIIgCIIgFJMgCIIgCEIxCYIgCIIgCMUkCIIgCIJQTIIgCIJa5C0lb0sjmrF3XKogmEseIhhQ LIO7sUmXbVvhj3gZM7BRl88+iS/hKJyILEQ4IPvJSJyCo3EG9u+2/274KY5DC3avYtuvL55rOX7T ZfvymIh/4Z/4cA/vj75oC7wN1xVKSdYPbQmCUEyCUnJ8cc07H3bDMQmbF9v+UCgpsB0u7fLd7xQK SjDw+sl5GFe8HoJHi/4By+IVrFu8fzser1K7dyiUp7WKv+FdPvtisa0R38VTPTjvvmrLioVy1LwY 1yAIQjEJ6o698O5uD7utuwwosBOeK15fjgO7fLY97gsxDsh+8lTRVzqZXCgrnZaIWV0sEO/AvVVq +xWYiiMxottny3fr57/vwXn3VVt+gOmLeQ2CIHxMgrpiLayNm7tt/xv+3eX96uZaTLaUzN6d/LN4 SC4T4hxw/WSQeX0knsKGxesX8QX8vFBkx6KpCm3PcC1ekJad7pcsgbq0U9Huz+JDPTjvvmhLg2R9 ehH/LZS4d/VhW4Kg5giLSf3TiJOL/xYxCzu/mPHCa4Vy0sng4rvrhkgHXD/5NW7EmtgAN+FX3b5/ Nl4qFJTGKp/LCLRKS5NdeZvkZzIHP1mC+6M32rJa8RsHYCVcJFkis35oSxCEYhKUgs9ivW7XfH4P uw/jY13ePyitk3eyEmYXCkowsPrJeviTtMx3TjHLP6nLvt/Ep7EpHsEPS3A+G0m+L/Pj4MKasTj3 R2+1Zd3iN4Z0UZZyrNpPbQmCUEyCqnO/uZEBXf9O77LPlvhIt+9dho92eb817gpxDuh+AttK1rR1 ivcrFhaIFYv378b/SnA+I/HAAj5bGY8t5nn3VlsGST45axTvlyt+b7V+aksQhGISlPKad52FbY7D sULxt4HkJ7ADpnTZb0I3RSUYWP0Ehkp+SZ/vsm0ZKdR8i+L9eqrjJL26eX1KDsMRXd6va67v4B74 3mKcd2+3ZSIOKV7vWMg066O2BEEoJkFNDThvK2a33Wdomxaff0oKWzwa3xJ5TAayYrK+FEnyufns u7sUWv5ZKZ/JjlVo77skB+2rpbD27vlBJkt5QY6RnHSH9KFisqi2rI6Li/vq+13ut1BMgiAUkyAI esDOONTc5YcgCIJQTIIgCIJgIBN5TIIgCIIgCMUkCKrAJvh2iCEYAP3kaGlpqgxcHl0qCMUkCObP YCmkMQjqvZ+MwLCStGWV6FJBKCZBEARBEIRiEgRBEARBEIpJEARBEAShmARBEARBEIRiEgRBEARB KCZBEARBEAShmARBEARBEIpJENQZs/FCiCEYAP3kJbxekrY8HV0qCN5M1MoJgiAIghogLCZBEARB EJSGQX18/GXwEXwKh+H+Lp99EiviWayA75tr2VjYZ0EQBEEQBEulnORSYaxOtsOlXd5/B0f14LMl JZSaIAiCIKgBBvXDb7w2n20n4Vdd3v8aE3HuIj7rSqNkTQmCTv0zY9rqDHorHW8lWxvLYfmivyxP PofsKfyP/HaG/Y1Rc0J2AdbEPlhXKoL3HP6O6Xis1C2faiWzbY/NdFhdZgW8LPOU3FP4tw43Odgr fd2U6azTztYZm2KlnBE5T2T8L+Ove3BbFpPFYCFk/TViSJ20cynnAWlp58bi/Sp4CsNx+0I+66rk bIAf9PD3P9yP5xr0G9etTvtudGxLwzbk77T4VWFfwu9xKdmvaHol5DpgeT9+O5/t4zCldK29xHra jZPbT2Yri/YZnI2/yLWZ4zyH+V9vNWUaWzdwMPbERovY/X85lzVwWhP/jG4XlEUxeQ3vwl3F+8GY hfWKfRb02b+X4vdDMakLWjcm+yj2wrbzeRg/hUfJHyV7FC+Sv0DWgRfIBpOvirWxg3mXGF/GVDp+ xJh7Q9Z1zVDMnM+2c/EQnsdK2BInKtMAOsU7tPuSzEckSyApNPgvcvfI/Kdo/7Jyq8qsis2L+6XT Sj4LU3X4noPdvWRGGo0j2b+DL2RpCb6TZ/EX3JnzdMZLGavnrIMPSBYpmINL2jlhT72nJAWhmCyp YvKgpF3fVLxfCU8UVpF7FvLZ7FBMBiLThtK4P44g37nLtXwVMyTr2m1kt9H05OJbXebsjUPw3uLY HWRX4js03Rryrys+gO/hOmnZeEnZu3gmXdpvLZ9oC5nvyuyFTG6mzFRc4lm/c8ybFK15ucAIQ70P h0pW5EHFM/VHhviWsfNddp8vbeybcyo2LjY9g5acS1/iL2NpX9B3K2yFYyVL1BA8n3FiEz+L7hlU UzG5DJd3uam3lvxItlzEZ0vz+6GY1By3DOapw8m+Ulg44CWyqeRX8OLvGPta7/1eZUOyz+Mw8sJp O59Cw5doeiSuR02zuRTdN6Z4fz82s2S+DssV338rzisG2df6rOVTDTHTl2W+VAzkr8j9TIcfOWQJ fV8mWkeDE6QIyMbCSrSf8W9YqudLK+tlnF8oePBwxg/auXiMRShG3Sh8UX6MD3ae6VA+PipZLoOg T2nw5qicHcy7ZjsBH+3BZ0ujmAQ1RWU/Kv+gkhd/d1A5gitH9P1vX7c6le/R9mr67bZXqXyTGcPi utQkn5GWDXJpieMkKVpwaSZ0R0oWuxw3Y/U+spK8W4u7tci1aNfiJ6ZYpZePf2dx/BdM0rwQS8cn KrxYIa/wVIXPzOiFAIpWPlLh+eK497SmZfsgLCZ9xko4UNKKv1XMLh4tPvuUZAqdhVXxjS4KxMI+ C4tJXdO2Ps4i75zZ3odTuamFCR3925Zpa5F9jewThYL9dxxB84y4TjVnLblFmul/U++lSN9Sihrc AP/AznozemeSY2V+IPnZ3a/BEQ70x16XzkWGGexCHIA5MocaZ3IXhWTNjPPzudamSwfxmd3S8k2v cC0bdaRozC0yHmtnjzGEn1coJnVNKCa1YSU5AqdhWTxH/iVuPq//FZI3PTbfS8fPJNN/B85m9gns /Wpcs5phFX1Ts2V1XCUthRxsIb4VPeZcwy3rXIwvnl0/NNvXHdaHtW9ymSm+Kfc1zJb7kINc08r7 Mn6J1fBsxqeb+sivZhrLN3AldsUz7Yza08KXloJQTEIxCfqIq1dk0HnYr9gwhUHHsdsT5WnjtKE0 fFlaBhiC+2g4kD1uj+tXGoZiVJrk9yvDJf+KpVdKku/HlXgnXpI7zEF+2W9n0uLb+ApeO/W7Tnvn vb5Q9PfpOKSZx/vy52cw7HWmZsm5+H8N7LxHUvqCoC4Vk6CUTNuM1r8XfiTP0/qxcre3shWVe4r2 vk7lcymxW1Bl3onbCuXgPTV5BpNsrMW/tchN9oAWm1WjGYMvdO6nmuSFz0de4UdT54Yl9/0TgaGt tBW//a9rWCO698AiLCZBNQf5ZvxCSor215SfpKkGEi5NXYaRPyT/VOpX2WUMOZxREU1QhXEU38bx 0uB5v7Sk8teaOotLbK1dRVoy+YPZPugwz/d7z2aZEZlfZbnm2YO4eH93Xr6JrU3Qr8upVzF8cLLS vAc3v8iosX0Z+RQEVVJMglLRegyVOYXl4dI02NcabfsmK08lT1aU1o3juvYrDVLW3lzKx3EKyhA5 lUkO+9/r0d6T7KTF81rkJrnGuYZXo9FXMqKN6yvk0xo8tcXXPFdE63yyGu2ZxqoV/lEhb6UluvvA urGDoB+ZMYjWM8nOKPrf97jpgN7NR9JfNP0a25Hdhc3I/lpYgYL+oUOKivk3dsKX6EMH0Z6zheSn cYKUzGzBTPRumWswUu4XXrWvo/S7U3WFlYZyXc4ueDTr8L673+4TxcenusRb+rtNY1IW572lzLHj 2jg8unxQT4TFpBRcOYLK9MLC8Fr5/Ul6StuytE0tzmsmbePiWverdWJkCdt1RPHcecW8OZzmMslW WjxbWCUmmlCdieJ1rF7hjsKn4+F58oi0uLJo36XVEmQr44u2vdy2IFkGdUVYTIJ+4qpVGPI77Ib/ ke3K6F/Ux7k1vcKfP4YfYQj5JNpOimveb5OOF0rYrvNwkRSxM0nyhemqlGws04YV8StvdXh/+3HA DFaYQyvegftns8to/tVll88UytVHTLFjNQQ5Oi3jTMSyOZdNXbrkeEEoJkEAlTWTUpJtJxVD24mm m+vrHCd00PwFsmPQQX4KlQvS0lXQC+yBP0o5bmqFzxX9fSu6DOqXeIvMdCkHSsUQBxhlTn837kpG zKRNKvtxTwc77909Qdx4j8r8HzLtvl8tQQ5NCtKD2GJ51WtH0D9EVE7Qx1y3AXOuxdtwD7Ob2Pux +j7ntn3JJ6fZcn4ts/Znn5eiLywxR+EsKf35MVIm6Vrh3ZJj7m1gomU1+D22wR+8orkaPiVTWWZ5 rsGonH80stMe/He+O6fifw9LEUNjjNdaDUFOY+sG/owhGbs2JcfnICwmQbBYj5KtmfPnpJTkf2LO TvWvlJCcYrPd8QzZHgxp7Z8aP3U5cZqAcwql5Ez8pMbO4eY3lJKpGjWYgm1kHjSkOo6utzB4eaZi VMZjDey2QKUEPu4l+RsRRl+pliDH8Dd8B1nOOVNT4rcgFJMg6LHVYGcaZhSzrApz9mCv5wbO+Tfd SPt78G+y9zL0GmYsF/1isfieFHY7C4dJVXw7avZsZvqBVEn3GexlrGer0Yynk4K3F55uZ4+mtNy0 cIb6WdHu95ps52qJ8MXUJ+7FpstzYtwioZgEQU+Vkr2SMmIk2RV07Dsw68rs+SCNO3vDr2Zmaygn i8XpUq2UZvy8ps9kkk/IfF5upsyHjatOmvW2VFLhk3ilgdE9LpQ31suSQgOfr5YYxzIrS0Vec3z5 Gt4et0koJkGwCCoHkV9BvgzO4c/7M2bmwJXH7v+hY3epqvb7eP3K2kwmVxX+K6War+1qzpO9S/KR 4T6nGGc/VfB5qzA257uS1WncHqni8uKMFudiltzeJlqnWuJs4vcZF2JYY1Jeg6AmiTwm/fPo+wyV 9iKfx6khj3lksyFtjxaymR7KyQBhotW0eESL3M+dJRXBy3FAfzajlR0rvFYhb1sai0eLyUUtn+9U U6xXsUqF54v8JqOio9UXYTEJemvg/WYxK8zweZojj8c8ND9MxweKgWk3lv8ltwwOubzBLlK5+/ph hkEaXIq1cKPhjjPXefQH6Jdlvemsk6UMucPwkyZOW4opXnI+7nCEi6qX/n9vns6LlP85388j6jIU kyCYy4QGKmfh65iDQ2k+PeQyP0Y/QOMH8ARG8/RPQyagKU3q/UY9+Qw85ruFsvWY2fYz1izJV+Ym vBVf6+smTGWZdn6lcEJ/MTkQLzkHuRG3y6xqiP2qKd45nJHxWMZ2FT4at1FQa8RSTp8wbSiVKV1S zH8wZNIT2ral8nIhtxMGuDA+gFeLe/ScupkstRitRYcWs+aTMXU7tGMmNurLZlSYWCx3PHR1yjLb G+d2RJGmvup5RFr5eHF+94TVJAjFZMBTWYm264vB9SUqu4VMFkt+exbVlTvqp2bQYrMTXi7uz5+o l4FlitW1eLwYvBekeP5AipDps0y2bXy+GLRfakuFBXuHqZbT4kUtclOqW7tmBoMq/LM4z33iuVIf xFJOsARctwH+RL4L/kvHzjRfF3JZHJqvwZfTYNxwIdN2GIBCGF8MzBfgs3UxgZigQYfJWANtHvbD Bez5RZwq1aHpC0vCrnlK3Z7j0Cbu7rWDj/WyzOWgw8HVFPco5mT8X/H2hHiuhGISDEiufS9zbpaq fN5Gw/aM+VvIZYmUk+/j/BRa3fArpq8zwATwaXwCR6oXq+ZGviwtTz2uw8HVKMx3HatnTJGy5Z7S zC97/UdyFxSvDjFDVetBzUqK7VN4T0TohGISDDja9iefjlXQRsco9vhvyGVpWOXTaSyxJu2XM3Ug pdlulwaVjro4m0m2kft6cT4HOdiT/d2ECTTMSdWM18y44cXklN77jPcnPIC3eExzNcW+d/JROr14 +7V4poRiQm1V+wyWmMqXyaem2X3+Y17ckzEvhlyWlu1mM2esVGp+e0ZE/pda5CLDZCZiMM403m+r MUl8d1JEdseTGQeOTcpf35A5v3j16WqLvyOlKngOoyrJdykYYIrJrpJGfnvxfmP8CI0hznrklsFU LpSKZ3Xgc4w+hrHtIZveYq/nyD6GWWSfK1L61yPvr9tLONi3sTnuN8SXF3/S7y6WrgZNKx/IksWg PefAhRbm6w1mOV/ykWmuthPsGF7M56bM/0o8UwaWYnKYlB76w9iq2HYbnhSOR3XI1SvyVKW47q+Q f5jmM0IufUHTzd5whs1/lqKe6orP4reov/7T4r1JYTdH5hBjvbaYR9gKm+HbS9qE61g5YyIaMk4e bbEtNovPYZ6Xm4xMR/WtJu2pb72IpjbeHc+UgaOYHCkV1Fq52/YbJSe2oG64bgMG/Yns/XicbBdG /ybk0pfcdBp+jzXVVw2Q90mREzn+WFeXbKrlJIWgUeYU4/xlCY5yBp6WliB2WZJmzOFcvAV/eGEp FJzFJvfj4tUhWixfzUuxV1rKOSs1qx9lEFRdMfkz2vB6t+1rS+FxQV3Q9h7m3IRNcQfZu2m6NeTS 10zowMcl8/hBtH6gDk5qRSlCZLCUu+Oyurpks/wQG+A2Lzt5CY/yEm8M8ItdyqGSLJr74YWcg/vU r6Q7B7tb5ndYHodX+3IMTX3sWezWVs9Lh6GYzENntc+uiZBWxzdwX4izLpSS/aUokVXJr6VxF5oe Cbn0F80PkxcF0rIz66Cezs+KictN6m3tf5LdcaTcTBzqKLOX4mhnScnmmopnbM/uVtZXWNdyPjs6 OVH3Lx1vLM8da2p1fQ1H8bzk8yjn1MgGOzAUk7PwKdw7977wd6zHYjt8BaWjciz5pUXkzc8Ytie7 vxBy6W9e+hEexGY8/ekaP5lJxTPiQKmWUn1wkRVkLkAm8xXj3bWUR3y2UNzG62EytAnp+X1RYa34 5WhaqiKL8a6SQofXM1vVHbeztDT2P2xfSY7FwQBhM8lsd4pketyk5O2NlPQLZeoQWn9epJefkxSU oMpK4p7F9XiOttVq/GQG1d3lmexiLXKT/MGE6uSDqvC1Cnkbj1ZYqcryOKZIwf+7MlyeNo4u0tTf NSHyddUcA8XMlQuT3oIebyuR/apIL/8y2QE0XR1yKcW1uQp74Sc0fzbkURJa7JHGPq8a5B0+5u/9 3YRWts/4Exozdm9SZYXgAiMM9RiW024Th3iwqlMthixfWHEyxjcxOTpu7bAkmuTq3b63cYixZge+ DfHnpJRkj9GwUyglZaLxBMmR8cjiWgXV5lzD5X5aTHcmVEMpaWPZLC2RDcbpVVdK4ONekpuKTKPD qt2csczK+WYxK/3KhLCa1LVicqC0dje+y7bBUgdYLsRZS7RtgRvwdtyJHdnj9pBLmdj9PrKfp3ss P7lGGr2xFO5cnyznZJm34Q6v9nlI93ytvDnfw8YZd3WUybev8Y36OYc6V9WdtofRkvMPbLoD+8fz pH4Vk89IDlpXdNl2t5Rg7fshzppRSnYm/6OU96CVoe+NyJuy0j6B7DWyj9K2bckbOwRTpSym29fd pWixvdyxUiK1jy9lFM6iFJITpKWIFbt+MC3lOfkUZnUwfgwzSyOfA/1ZCoxYw3Cjq92covLwqYVA vxoROvWrmFyP70px9135D8aGOGtCKdkLFYwk/wWr7MOol0MuZWXMo1I0XEZe9gJl38A7pAiTe+rq MswwSO5cNMr9yDh9mdcnlyoUb1RMBsFVDG9IRQ8b8J3RydJZNi4sVKuPl6ExL3IxHsnZ8lr2jOdJ fSomQ73Zwz7DoakPBOWmciD5r1I4sHO4eVwqIheUnB8mq4kPFktwZWTrYpbfXjwPXq2rK/CoE2S2 xr/k+mNZrbOY4zEYDoPTpPBtuGOVFBFZPjpMwmyMcYm3VLs5Y5mVcVpqms/Ho6Q+eRd+kx6Qtsa+ aC00/M+VuN0RLqz101TaixDUqGBbe0rlj4trN7GEjRuEW4r77P/qTvQXe7sWr2nRoUV/ZuO9sZDp 0a3sWGFOhdltlHtJr8UvtchNdmIZmnMlIyo8X0kZI98Zz5L6ZCNcjn9LmQpvwcHKvX43wBWTyonF oNZB6xejC9cibWtTmZnyzEx7W8kaN8LcRGrL1pXYc5lJri8G2gv7+df3RT6E/1S4t8jL8a3Sy6zF XkVOk7vL0qRW/q9C3srP41lSfnpTmWjUnzUaFl8xGYCOT3lG2w9xXHFtPknz+dHta5XWn5MdQvZT mj5TwgauIKUErx9aHC75dTxhiM2M9Ww//noDfnouI9flY7i7g+1K5fA6P8412HCPyawqs7Vxbq+6 Ws/6OQ9hzmzW2jsVTQxKSm/Fdg/G10KcZWJqI20XFkrJ62T7h1JS6wz6HjrID+e61UvYwPpSSi62 srzw9ch9vp+VEuiocOG6fARzcg4vvVICR5ktMzWdgXFlaFIT/5TcDoYO4aB4ltSXYjJGCgWcXVgh Ov9mSR75QWmUkhEXS06IL5PtSdOvQy61zu734dcYxpxw5OtzPdD/yayKax3kkn6/ixmScb5kjf7R aP5aQ9JLdXsyB1a7sF8Xzk86pk9E564vxeTnuBLbYdMuf+9Wb+XMa1opGflzsnF4hXxvmn4XcqkX Or5dTAY+xYwVqtiQZetazFPsIneQ3Ey5Y6rRhOU5MWdLPPRikcW0ZhjvJpkH8RazjSpDk4ZyDf6L zdp4TzxL6kcxeR5fxx24v8vfX/DVEGfVlZIhjLyMfHy6VtkHGH19yKWeGPM3XJfGrVnVnPldhqup fkhoH5gqhuhwtlQ5+GQHeaC/mzA9Tfi+gjznyLG8Vns6dGFlyufJFF41ioRrF6cmlSPPStA7isll WHcBnw0KcVZbKVn+UvIPFQpkE003h1zqkfz04sn/KSZUowbIQRiNHZXX4X3JmenLkmLwgGf9sL9/ fgIN7fwMQ3POG50SW66JM6XttcFgk5IOYH8Ty2Fhy7ioeLnftJSXK6gTxeREbNLtb1McG+KsFtOG MuJyKbzwORp2p/kvIZd6pbkVD5FtwI5N/fzjq+BHxevP44m6Eu1kG8mcKAUKf8ox/e9sukNKOf8+ PN7OSV2e1Z/EYVi7JmSZChzejGVlPliGJu2RInNuxciMpniW1IdiciGOwn3d/u7FkSHOanDVcBqu ItsbT9K+C3vcEnKpZ7Jc4ciXrCb9yk+wKtowsa7EmstwDobhIuPM6Pe7mbdKGV7lfGYvnis+ekzK HzUIn64hqbYU/8eXqE1Ti/9RRqVOFJOLsV7xvazL3zDJ9yToV9qWZdBV2L2Yub6fPe8KuQwEBl0g hYHvSdv6/fSjqxUz+ZeLCUp9McUhcu+Xe0q7E6pyVTkdy+NXo+ctloo3qhkfqUhTXwMjzKWYLbOH iVYrhVqfLP95xgdnpLErqHHF5BypYF/3TKrD1dLaZ10wYznyq8nej0do2Inme0IuA4Xdnilmfg04 op9+9Elshn2kzM/1pJSsoqOokJ45ziGe6fdpBqMz9sdLHfNfGv+LlKZ+JRxSE3I90NPp1AzS4KNl aFKR0+SvGPG66ldBDpZeMZlp/undV6T/4/wHLtNHMms6dk2KYsco9ngo5DLQ6Dg7/c+PYEZ/zfxe QP2Fn7c7vchU+jvjTO7vn5/KMh2pirSMb4zh0QXs+v1iElhL16BzOWdcido0tZD1R+I5UvuKyS6K tL7mTbD2d8lrPOhzZqxA+7XkO6RZ66BRjPl7yGUgMuYmyZFvFWbtF/JYQiZrkhmHVzU6Utb/tbVG 8rWMDTLuWrlQUBbAldIy2gM1I9/ZriwU2nebZOMyNClLikmOvaeyTNwEta2YHI3PYBtMkKJxNpdK cO8a4uxrrlqFmTOkKs8P0fE+dvtHyGVAc0761+9OsPXBuYbr8BOQm1BEkvQrrWycp9IRHR0ctV3K rF0/HOZ1mV8V7w4oQ5OaeERazlluZETn1LxiciOuxZ2St/ijUkTOBfhOiLMvuW51Bs+Qynbfh10Y 82jIZaCTXZJmo9l7adukD37gBCkZVX0WwRzumzJvk7vTq284l/YbOVnG2Riacc5o/lyXcs7fWB4b X0Q/Vf/OKbKV57GcU/OKyZpSiuRlJJ+SU4vZ+76UI069Prn2LcyZgS1wd1q+aX485BLQ9Io3wh/z w3r54FviZMmnYau6E90U75A5Fh0yRzmq/y0Vbame1Sg8Mbues2c/bAYelXmbFjuWoUkdKfw6lnPq QDG5XKo3cDSeKh6ILVISoCkhzj55dK1Pxw3SstntzB7Fbk+EXIIu09HObJYHM6O3MjA34jwMkZaL bq8rkc0wSIcLMVjuDOPd1N9NqKTomu8Vb4/rkrOkp7ynmCCuWnp5T9BhboBEKXKajOZfuAUjlmeP eI7UrmJyM9ahCKvj93h7cWN8LsTZ64+uzfEHbIi/Mmg39n465BJ0e8T+WVreW4PXe+sBe7RUnPO/ Us2W+uK/jse2+LehVcvB9AOsmnFD05JFNZ6Ij0kZYWthtOmsODzWuQaXpFWXE8s5ta6YBP1G6/a4 gfytmMHMDxS5K4Jgflxc/O+N5ZyVpSUcxaD3fF1JaopN5CYglzvCWC/3+92dEtUdJqVg+GRmiSKB Tiv+f0qybJWbA92Ju7Gy5exehiZFsrX6UEyy4ma6Vcr++IAU2rZiiLI3aXs/2W+LAeJKho5hn5dC LsGCab8Yc8g+mKK3lopn8GGpJs5VdSWmCRq0Ow/DZC5wkOn93YRbGJyl5bEs45SmVKF9SbheWmJb U7KclJ/MpcWr0iRby9N4NuL1WM6pWcXki1K9nLuLjnWAlOjnp9J6abD0Ssm+5NdgBCYxdH9GvR5y CRbOnv+TMmwOYUhvhGROxxfqTkwbOVbmfdISVVXSzj+dnqOb48H2FECwNJxe/K+Na9VYLFnl9jW1 HA6nWbGc0xDLOTXLo/j2fLYviy+VuN15bYi3cjCV2VRyWs9MFsYg6HH/2S/1ncodIYv5MNH6Wryk RW6yfapyhdiwjVcrdLTygV445FDcIeWVGlIT16HFLVrkJtm3FFNB1q/QUeHFWM4pB4trMWlPs/g3 8YrwV1na2+Mr+LlUPfQrjD6mqCIbBD3kxavShNw7uPadIY95piaZBj/DcphknCur1JKf5ik09eLR /LYXjjdTCuWegFk1ci1Kt5yDv2HELOXwfQnFZPG4XorKmR/rhjiXhKlDqFxI/m0p39Knaf5uyCVY fMbOIi+iO9oPXswv7yRVDq9PJvsUdpN7yhDHV6MJFQ6SBr6nZ6flnIHJIL8oVMUPmmjZMjQpkq3V lmKyHjbp8jdZSgj0jm7btxEOsEvA1SuyfEVyKH4FH6bp7JBLsBQUFs1s3GLkNFkRl+IuKalafTHR Oub6cnzKWE/1dxOuS47sPyreHr93smwNTA7wCG7CcA32KkOTGufWztk3kq2VXzH5kpQfofOvDQdK a5pdt9+qd8ySA4i29Rn0Jynr4+M07ErzlSGXYOkY/VfJOX21xchpcroU2XEn7qkrcaQlnAskZ/LL HOSX1WjGHH4o5Xu6vmn+y+EDi5It5+zGP/AXjBihHMpSKCYL5lIcXOyXLeLvnBBnT5m2A/lN2JTs Lhp3YI9bQi5BLz31O7MwH9SDnccU9/hrkjW0o65EMcXRadzxpA6frcrdnqqyH4KZ+ZLnLOkJg6Qw 751Lf10Guazoa6O1WL4krbqkGBQPiGdIuRWTGxQJaIr3wyhNxr4apW1/Gn+XZrT5tTTsxO7/CbkE vTg/n4h2sn2ZscJCdhyJc4vXX8NDdSWGiTaVF0s4uU872JP93YSpLNOQag1lGSePTrmf+opD8Ut8 s/TX5gD/lTKHD5NVJ0Jq/pdLe87oGawQz5HyKibt6JpD4x6KEuHBElA5lvxS8mVwHsP2ZPcXQi5B 77L3Y5Kj+jBe328R9/dvpIq2p9eVCGYYpMHFkr/AedVawhnBt6SyHXe/kFLQ9yWX4iXJQrNZDVyl SwulsRTLOc083nnfzORD8Rwpr2LSnX8UGvn82DrEuSCmDaVyUfHwz/F5mo9k1JyQTdBn9gKQLSw6 52V8BrsWSkr98JgJ2B7/NLM6UTjT2CHj85iTc/jYvg/nfUnyX8nw6RoYfS7HHOzhYiuXoUn53JpF sZxTQ4rJV7G3VNWye1TOSSHO+XHVW2m8XjKzvoL9aD495BL0LdkvC8VjJ67bYBE7z6qrU59ix+J5 1KHBYT6u38s5TGNoAxdIVZq/P5q/9tNP/7T4f5Dk8FteDvS0FDQxWEM5LBTD0sR7Jt5/DWvEc6Q2 FJPvFzOsP3lzVM7YEOebHk+7MPg28h2kJD7vjciboH9oegVXpNnznHED5rQnWlaHi9Eoc6oD3VCN ZjSmIoib4f6hcwsi9gf3SL4bj6uFvDSd0TlZOZZzRqWClRU0DoqcJjWjmJyFfbw5SmeouTH6AWg7 kobpWA3Xk+1Ac6QKD/rz9m4pXhzcpbzBWsU9W69PtNOwkdzfDK6OE2gb7845TloeO2TUvH56/cGH samUl6bczHGF3EyMMsXqZWhSVizn5LGcUzOKyRW4zpvD3Wbp31lBmRWSZWltIT8Xg8hP5cXdaHoy ZBP0L8//luwxbEhlBwzHjKQoW63uTneSZnxCbqbMIcb2/xLVNIbmxRJOzg+aU26M/uYZtVIf7DDP 41o06rB/GZo0K1XUfhk7VtgwniPlV0zm4N3Fg+15PCKFWG2CiC7Rtgn+nLJueplsLKO/xNj2kE3Q /4xtJ59czAMPkgpwbiiFQj5fZ0rJmjIXI5M5yfjqWAsaUqju5rh/WC2E7ZZjFOpMtlYKd4C9eTX3 Ri2lcFGoAcWkCb+Q1jDH4oOSF/g38M6BLcrW8eS3kG+J+8l2pOny6GJBdem4OP2/ezyOKSYXh6sn h9epGjVowWoy0z3szGo0o5KCAI5DRwOfqMISTm3yut9ICf7ep8VaZWhSNjc6Z3xcoPLza/Mv1pfh KyVudx+aNWcMo+2Motx8TmViWs4JgrJwxd94a17cB9+pu9Ob7Bta5Fo8Xi0/haksU+GeCnlbChIo C8tKeVTKTYvLimv4uTI05xYGV3i6Qn5NPdaPKjmLazG5C/9ewMCfDTzxtW3CzJvIjyF7jezjNB9c REQEQUm4+5p0i67xgnpbXphiF7mvoUPuYAd6ohrNWD45/2+Ge4fw9ZJI5914TC3U5slTdV+5/crQ nO2YnXE5NPKxeIaUWzFZkB/JithiYImucnBaurEVHiTfkaYLo0sF5eNdZ/KT2Zy6LFctXzenNdWq OkxBo9zJDjK9KtMTRuOTmNnAuBIt4dwp1aN5V/GcKi9DTcNrMu9xibeUoUntc5dzxuUDcuJdO4rJ 4/iilHhmuWKG8HncIi3zDACuXpHK5bhYMpNOZOZ2EQoclJemJ1mmjTUGMbg+Zn8TNJhlEt4id4Oh 1YkKrLBmnp4FWcaX9uD2EknpNXSGjB9R6us51stSdE6DdvuWoUl/4Q94FOu2JutTUFLFZDKeLhSR l6RkPsdIBcB+Uf/iatuZQXdgP7xAfiDNh7DPS9GVgpLTac4/tC7O5m1OQpPcUwY50Nj+T6mfJ2Xk fKyac+0e5aw3dH7x/0CpCGt5yYpyJ1k5lnMmJGvT1GKgjOWcfu0KS84q6d70TA2c51L6wMwYxKxv kH9JSjFdhAQ3/TO6UFBShplnSWHaUBoew8p0bMOYv9XsmbXYQYoMbJQZY5y2ajSjleOy5FvyFLYq isCVkVuwLfbEtNJe14usYLAn0GiINY31VLWb1Mr2WcpF878XWWtsvdWUKikNS/Hdp2tEKVlKrtuA 168n/2pSbrIzWWWXUEqCEvNWPIzPzVXIx8z0htWk4YiaPbPJVpSss4PxvWopJW1skaUIpzznEyVW SkjL7VuVWimhM9na79Botg+WoUlFjaOHsMbIVLU5KKFicpS0dLNp8f5I/Bd34B31JZo8o/UY2u8m ey/+RTaKpmPZbnZ0naDE9/TFhXKyW7fPupj1rxpec2c2QYPcJCllwZ+8tTrRLzOSNWqK9P+no/lN ySX3B8kRtgYeu8VyTkmicyTN/tLUpFjOKaticrSkQd4nlUo/W0pRf1zxWZ1wzRpcezXZGeTLkF3G nG1o+n10maDkHI8PSMsLnzBPDp/me/BnjGRQ7WW03NA3peWIZzQ6wChzqtGMmZyWp9wW976YggGC 3qLRr6UkgB9wkRVKMkhOKV7uP5UhcZHKx5HF/yGFcvKQuRfqc6XWw3tM60eoPFMkS3uStn3jsgc1 wjZp3NSBvea/S+Wwom//qabOrMWHtOjQYk5RE6cqtPLBCh0VXm+tOytxSZjst1rkJjuoLE1q484K eSUpxkHfK4OLxeZYHd/DxtLSTmdq63fWvjgq+5FNxUq4kmwLmn4d3SSoEXaUnLPPwtXz3yWbKuUj eg+VzWvirKZ4h+Qfk8kc5yCVKg1Oa2epQF+GE0fXyvJIrVHC5Zy8iDrNYjmnlHyky4zshGLbdjhX uatZ9rBtUxupXJtmlUFQs8rJIsJCK2cXVpPTSn82U61kkoeLdOUTq9cMQyrcVCFv5Tc1mnBrE2lZ 4sxSt/Iia2jRrsVrLjCiDE26jg0KS9mLU1kmHjPlYzms2uX9ekWH36T2FZMgGAhUtioUk6dTraeS MsMgLX5XKCW3mFq9AaGVMwtT/r+vY+UavfCbFs/C55U9p0mLP2qRm1Se6r4Vbi5qIe0fz5C+ZUnC hV9mnvjyf+H+4i8IgtLTfAduw8rMLK8T7H+dhlH4n3b7GOu1KiklH8mSc//snI/tVrtpEu6TcnKM xN6lbmnJkq2lpqTlnIjOKZ9ikuEw3FooKA9I69krhiiDoN8ZhKFL+N2zilv6CyWdMR8u91m5mfiQ QzxWpVnyhhnnFW8/PzpFNdUynREmB5a8nb9KOoAx1bSUdaXwM2nHntOTcheURDH5Ii7E3fgoDpAS 4vxUchgNgqD/+BZuxIaL/9WOKfgf+ZZMK1fiqCl2lPtp8e6zxrupGs1oS7WwrigsDFOb+Ukd9JlL pHDcMcq8JDXOvyXrznJmGlOGJhVJ9P6AYe3KkQAuFJPEMVK2w0NwjWQO/pWUL+GoEGcQ9BtNOFEK WV1z8b8+ZibZOcVj4POlOatJ1tThMpmhMmc46I2kcP09O87yNAnbAvfNTM+4euBJ/BzfV34H3stA 5iNlaVBE55RTMWk3txhYV16xdOntgyDoOWsUg0sDvl7M4paA9p9K9XT2Ztrbqn5W5xouc4WUtfa3 3qJqy0xtyTo8Fi91sP8+qWhpvXCEVHj16VK3stHUpAvY20TLlqFJWVKWZuXsMW3eIJCgiorJ9Vhn AZ+tG+IMgn54XKcq32tIy6jfW/JDjXlKMu030HhMVc9qhkGWNVUqL/+Qdh+tVmbX1pQ59zvFoHjY GO6NblcFDvAIbsZwDUaXoUnNPIvfYlAjH4qLVB3FZD1zQ4E3KR6Ih0rm467btxEOsEHQH6wq+QY8 JpmTO5ZyDvh/aQDOD2N69Rz6HnO6znTz7fZySHUiX65h3Swpa4NwcrMiOiSololiavHqIyVqVUTn VJnOxGk9+ftkic8j8pgE9cQwcwtp9oaN4Lcpr0nrcVU5m8lOLHKVvGqKHasl1DaWrXBbkavimgmx PF19LrF2kWztFS2WL0OTprF8hdcqtF/LW+Ii9T6LuvEuxcHFftki/s4JcQZBv/C6lJOitx4DRQbY 7GhmDOpnpeRjcqegQ+4gB1YnHHcCDTkTsTUems34CUttjaoJBXcfC16erz5pOecGDFeSxGZjeFEK /mjIlSfPykBSTG6QnH0WZXFYUe1mQwyCAc6fp+FBrMesj/bbz070fh1+LtXA+YKDqrdssgMn48PS oPOhvXhuAFz4M/HrYvJZXrKiFEFennbmXF78jyywVVBM2ovZ2aJYUWdoVxAEvU0fV7Gd0EH+/eKR +2Um9P0SRovtNbiyCAs+yzhVq9vTmvwXvoT2nAOauWeA9KtfF//LPbi2uwwvy+xssg3K0KRhXJ3x Gt5XWaJw/WBpFJPu7IKHpAQ9Xf1L/i4uThD0BZ+X8gX1cdTMqhPxb2zGDn2brnyyjaTqx8uhxUOO rZZwr2W7TGG14djRTBtAfes6qW7OVnh7aVt5sFcKJSrTYVwZmjSKl3OuRUPGvvGYqq5icjQ+I0Xh TJAc8DbHKdg1xBkEvcp7pXDgBinrZB+y3WzesFp8uc9+5mJvlZuO1XC1tzrMhOr4ckxnnQ6ukvwX flInmV0Xh1m4snj9kVK3NC+WczIHy0uTGO6XqWnhZ1JtxeTGNMlwp7QG+6gU43+BFPcfBEHvsJaU VXlwoZz0w1Lp7POkzKDvovUDvX74iVbTaDrWlfujIcZWK1fJNJZvT0rJGpg+lM8N0H7W2a/eVepW /t1vi/FmQ5O9pwxNauQ3mIld25KiHVRJMVkTW2IZKdb/1KJD72vpawdE2FUQJIYWM9nVionAV/vn Z/d+FWcUb3rXanKxlTW4TrKy3mGOvatVLfgWBjek2e47cO8cPjpKdRSkEjAd20rROeUlWdVaineH l6FJu/OCtBzWmJddfnWumFwuhUkdjacwtegsJ5lbtXJxuN5cP5Wu4caflJzRjpLqgWRxqYIBxEwp dPV+KYlTe//9dMdZeJ7s/bT1zsx0qpEGqRSTmgfM1uwwz1dDsDnZ05yP3fB4O2MGSATOgpgl+TCV n0HOL8aKj5Ylp4m5CfhiOadO2KFQcNYq/oYX27eT8qd08h1LXyAwEqwFtcjQ6vxs5Tsp4VrlyqU+ VIvltbi5SKD2oEuqaxmt8O0KeYUXp6WcJUEt0WKGFrnJjixDc65mxQozK8yqsFJcoN6hmpaIKzBb MoVdYm6RrMultfVOC8z2xeyxe6bLldHT6IGLhNUlCHrIdSsz599pstC+FXvetUSHmWo5s7ThPXJ/ l9nVeI9W66xa+XiWrCXtGR9qSj4mQS0xyQEyU2RuMc72ZWhSK20Ze+QcNjpFeAVLSbVSLmfS2vkL UkTP/VJ0D8nc+68u+/5TqsezTFyuIOgPdnuG7IJ0nzaetIRKycg3lBIekdu9mkpJG3tlxXJxzlGh lNQoz/mV3FNy27mkHBavwl9JFss5dcWIpHS+Ubr9tUI56WRwepYsVfXiWMoJyszGuJhylHZPTFuL ykwqc7h2o8VUSlbS4i/F8s2/qp0Uq8JObbxaLOF8M7rbfFlNmu3/tvQtbXGaFrlJflqG5rSxWoU5 FV6fzsjoSr2i7FWdl6TkUdsU7x/p9oAeIXnM/zcuV1CHrC45lB+Mr5WnWWMeJZuERjq+uBhKyapm +Z20BPsvHUYZ5x/VOotr0iTnyjxZXM9p5hvR5ebLC/gQ3o+3lXzUSsVlMwc69w3fxKrRlELsf4+h c3ruXhD0k2KyND4cT/KGmfcO81pH1pWWembH5QrqjJGStfBtuEWq11Ii2k+RIoIOZfqiC71NsbpZ fitlEn1Au/c52D+r1fppvK0xLRmvmHHFi3w2utwCmSnl5aDsKeoPdD/+jJGWLU1iuFjOKaFismqh bS/OLHHzLu8/jB8Wr39k3pjwffDtuFRBnTFESm61NR7GXnilXE0c83fJGX0wcz630F0vsZ4Of5As FHdpsItDPFatll/LWxpSjo418Nt2Dhjbr2HXNcnlxf+PlL6lmfOKV6WIzmlPikk7mq9MVv6gDxWT S8xbE2dBf09KNT16yrpSrYyrpVDgpyVvebhJ8jc5XgonbpDypQRBPbEOtsBjUk6NJ0razlPSPZ4d ybRV57vHJFtpdyM2wm3ajXJg9c6nwkodtGH9jJsy9hmTLALBwmmTqitvSzmK5S2Ql02Vlp/eY8o8 k9yqsCf/kzKjDxvGmOhKS8egRXx+Ge6SQnvzQlG4A39knvoWO1s8x72/YP2FfH52XJqgznlYqoWz jFQ8r6Q030Hr1WR7k52Aef1NpthFhyulZakZhviQsV6oVmunM7KdSqH03ZOzZ3PpLFGl5XX8rHjW l1uRO8qrJpki8ykdPrGYE+O+4pfYSVrOuTS605KzKL+QYYXC8Uzx/hvm79U+WFrz266k55mLPCZB sKQ2iG0kH5iZzN6QvR8rLCX7ykwplKsrzHagw7xerVZeyYihada/Ix5uYJc9wmm+fpniHTrcgWfM tlY1+x60sXaeJhmvzma1vXk1LtKSsailnNe7KCULU2Q2wIYhziCoR5pvk5IeDmPQiaDFZ2R+WSgl Z3rY/tUcGNpYdmhaGt4R/2rkA6GU1DkHulPmFqxs0GL5OPYJTTyScTOWHURzXKC+U0y685BUGn3z 4oG0muQoNU3yfg+CYP4cb25IfC3yDXRoyI/y45XPxlnI5L5pvGOLImtVYSrL5Kno4c7S4PD+3flP dLkBQEfhm5g5ogzNyQsH4oyxcXH6l9GSg2pHug7aJSfZMtcJiARrQTX5urlO4svX7FksN3WqL2yf F8mtXjfZQdVu0lSGVLiqSJ72v+lvLl0R1DOpFtNLWnSYbKNqN6eNtSt0VHilrVQJEwcOQ6XomqE1 0NZQTIJq8c2i/83BgTV7FpOt66IhD2iR++nI3HE7fLQMSkkrvymUkidCKelVBkvLEWuXvqWTnF8o y6eWoTkVbqyQt9ZC2HVJWZo8JjMlR59BIcYgmC/flqwlczDe3MKUtTYr3UHuZoNnvd2zqzxvwun8 34SqhkTOYNhIrshSps1n2tltd+6LLtdrnCkl/zu0BqadnTlNDndmKSbKUyHjo9GN+k8x2RWTcHvx fmMpKVpjiDMI3qBR8sWaLVlKflGTZzHZkXLXS0kRr/WLI3fy5JqzMI7pVbFQTGWZ11Oa+TF4Kuf9 e6a0BkHv0ZkFtvy+Ege7GbfJrGrlUmStvVRyddhzWi0v3daQYnJYmqz4sJR2Gm6T1s5PCHEGwRu0 SzOmD0j5gGqLqZbR4iK5c2WG4sfeak83fvduXJAUr/Z+rztzFcOX5zcZe+CJdj4wmjuju/U61+FZ KR/MZqVvbV7kvsp9utpNaeZx/AnDGlJG56CPFZMjk9yt3G37jfhEiDMI5mGWuVWza4eJ1jHLDZIZ /zW5w413jFHmFHucTPZamk1XtuqvZrWx7OAUEryblGnzA2Ep6TNmS4k1qQWryVCTC0XqPSaVIvpt as3Irg4Ukz+n58Ob8hWsLdWkCIKBSn2YbCfZT4Pbsb3Mgzq8y0Eu6jYnfJz8XCmv0YT+aNYMVshT 7ZtRUgXynZq5J7pdvwyu7y19S8d6TWYSyKpfP6c9hQ23o3l6yooc9KFi8l+807yJ1laXchyE41kw UHk7/oaTavYMJlrWZOfJXI4VcYXc9g529/y/MOhUKdX7PrS9py+bdh2rz0xLyDviPx2Mak4p/YO+ 5Xd4j7RsVn46nC1FwI0ztbrKQFE75/cY2j5vUdqgDxSTs/Ap3Fu8b8PfsR6+HOIMBiDvkZYyN0iD tME1dwaTbavBrXKfwOtynzPOfsZ7ccFf2u0J8h+mSUp+GnmflHxoZb05aTnsnbg/431j0jMn6Hvm SFby2ki3cJAHCmVqObMcXIIWxXLOErKkD5PNsINUTfQF/Br3l/g8o1ZO0BccjR9IuXx+gwPUUn2M cw22nBPlvoYhuEuDAxzY0yWSqcuw/APSUu44mns1HHo6m7anjNJr4dYORo/hqeh2wQKZZL/C6nev cbaQVU+pmsaqDal6uEGsvVt5K4jXJcOVP8laJFgLepuNpVw+OU5Xa+Hyk2yjxe1a5Fp0aHGGiwxb /ANVDqOSU3mEq4b3VvPa2LbCk0XytBtinT7oETMM0uLRIuHartVuToUri2Rrx8XF6TmLu5RzWTF7 6crqUhKpx0KcwQDiARwrZXf8nOToVn5SGPApMjdjK7m/y3zAeMcuWRG+my6W/GvWYkivlJ6/lj3y 5FOyKq5+kebdk2U2CBbOKHNkRcK1rPqhw5nkON5QC4nqSsTiLm/keBlfwtndHsaTqH7tjIW0O5Zy goHNFHvrcLrkD9Mhd76hjjfWy0t34NZdyWakZ0O2GU2PLPGRODTjZxic0bIyh2+XQleD6rE8figV odxe2S3Qk6wp829k2q3nkOpNmm9h8NNp0r5qxnZN3BrdadEsrsXkZ5I/yY8lh7+uOQweDXEGdcpo vLuGFZJNtGjT4TfYQO5OvNdBjlp6pQRGX092GZZLjrBLRoUTMy4slJIz/8whoZSUgpekyJxtsVPp W3uQx6Vq04M0+ng1m1L038nF7PjQ6Ep9o5g8JVlFdpeSrN2KUyU/k/YQZ1BnbF484KZJA+aQmmr9 RdYw2Y91uLMYWJ7FZ61lW+Pd1Ls/lh+LF7EfrYtVR2cqjW2cUzxLOnI+08SxE1Ja76D65GgpXh9c Ey3uKDLBcoQZ1a3n1p6eHXDgtNooeltzfK/L62XwHUkj/IfkPV/mGysIesq6+LkULpkXM8bj1IqD 61QrafE9LV4pnFvnaHGOKVbp2x9u+0LhCPsQM3rkSDuDFVppK5xcX25LRfmC8rFxcS88Xzz7y65K ZVrcq0Vusg9XuzkVbo2Kwz1ncS0mY3F4MXN8DV/B1lJtgN1DnEGd8AEcIs3YfyaFxf+fslsFJ1lT i1PM8g+pdtUy+JUGWxnvkw70dN82YOUzcDc2ZOYia2ddy0Yz+XNn3Ru8v4mrovuVkgdwsxQd9cHS tzaTy5xTKCmfqn5z/LwYcA+NrtQjeS0WIwul5NluD+kGSeAXlthiEs6vfTMT2Gom/9gnWRXqhUZp WeFsyRpYblpshuPlxhUF99KlyXzVuP52tmvbmfx6zKJjG8bcO7+9WvlAlhJQrYQ72tlnT/4dd1Sp OUhyfj1bLWT6nmqkWR7FstjCePdWqynXsfKclDm9oYF190ivg15STGqVUEz6gAk07JAUkuGS1exW qX7Jvbj1Ju6bUF4/gRWlhGizKcILa4kzDbWyD8odKVl4MknW0zT4rgP9uXqNaz2X7Mg0w37xvYyd x9LUxpF5yiI9OGNaOweMsbAss0GwhEzyU5lPyZ3toOqGD1dS/Zz9cGIz34+L0/eKySApG2xZy4+H YtJ3s4BrpdLo83MMfRF35MkEfGPGTUVJ8GoxpBjED8KHMEyKJltPLThvT9Vopp0wVuYArFB88jIm GuT/fKwM6dqnLU/D3VJG2M/RfEZqvmWW56eSdTXHKTfxtQnh5Br0FcmaeDdeMdvaDvN8tZrSxl55 Wqq8v4nNsvB9XCrFZHupWNe9kql1nX5QdEIxKTsTra/RenjxLS94+ZPnWWPzB62/7Cs2lcLItzL/ itP/xo05N2XctAp/68eQ0J/yxnpzR9KtXCTNZOaUVBlZxiw7SXV4PtxNpn/B+Wb6hY+XbSmtdQzZ NXiVjndca0xDR0rQuFXa5ohmpsSNFPSDcjIdu8kcZ5zTqtWMGQyaxb9y3pozajTXx8VZckXiV1Jh pLNwLm6TqiZ21faG4gsiwdpAutm/jm/O55MOKUvniys/57UtHmCL+w3Z+O+WXfcxKw2dNW+Ru44G s14Z7p6Xh7vxuRF++8+3++2PW5farL8pHpyPFWS0FFl2GS7Gf0on1zMNtYpttHufBrvL7VRYdjp5 uGj/Jca7q9ydpPUSso81abvz805bV/JReyBj/yYLqlocBL3MJB+UuVLu7/7u7SZUz0LXyoSMb+T8 YnRaSg56wcKxD642f7P36CT3UEwGyM1+mMzBGCG3gswILCf5m8y/s+Ws+xibPMxmD6b/az+etncy azAPbqD93o29fOfGnr5rU/+dOcTTeE7uWTwnK/7znFlecLVV/MVmHreVdrtIZRPeQzX9LHpkDRlp js102EJaDnuXlF1zSDdF72+oaPRLB/hbrXSRd/veWtv7wwN7umZ4CpJw2et8vM4cpQfquLFr0Wd/ XPrWTtVoloewPvY23tXVaso01mrgn+jIWLuJJ6M7Lb1isjDWwP9CMRngTNBgIyM1GGm25TRYTm6E BivIjZBZrlBkVsKKKz1n9W3uts4WD1h9kwctv+5/DequqNy7EX/bktu24OH1yBd2JV/Ha9oN8ajh /qXBc3LPywtFJvN8odQ8r8FLci9r9LzXvGKwV41fSmvNDIM8YiWDrKTdSjIryYv/rC63nsy6xUNy jQVYnO7Fn2V+J3Nd34f59snM8B1Zyni5xRyDXOjjs3/lQ1vTfE/cJDXPW6Ul2TmSH1H5Kz5P9gW5 H6DNeM3VbEolZU/fByc1z5sbLOhlxWQwTsLJoZgES8OVjHhuBaNe7zB25Ew7rTjT2l2v3etDvPbP df33ti09d8O7vf6ftxjmGe+wnNwwQ3rpOr8oWQVf1un/kntB9oYJeLmiz3eyYvG/Uaor0lNexX0y 98jdI0U1/XWplaPq3mjZtRyRc5pkPbv/a7790F9tt3c6v1V2ZLtIM1/7/EZKhvdFqY5O2RWTFeUe xTIabOZA91erKW2MzpmW84+b2WhCOH8vtmJyOC6okgUmFJP6ZjmpmNzT3hzTv3Kx3fKSt+Q2eB8v jEh+Cl15ANNRmc2MvVsMklkRK+qwwhuv098Kb7yeu/y0bLF92eJvuaU8r3a5Z4vlps6/5/Cs3NMa /Evmnzr8y8P+W8317j6YCW4oJaQbVdxz58zmC3ubNoiGO6WMul+n+eTo/jXPntKy/kPmZoUtN5Oc K3OkzFnGObpazZiQ0iw8jPUbaNqj3FnTS6mYrC4l0/kmZi5kvyFS6ffDQzEJFqKItEhRXesUygd8 GafMZ/+7pPXXu6Uw9Dtwz7Ws1c7uWco0PMq8ispM/CGNkSrNKafK4nORFQyRaTdCY1Fno8FIHUWm 5A4va+gSSTTY82bLDdZhrBcG2oWdwaCZHF849S2DJzI+0aTrWn5llBQF1U7De9jjlrglappGKfng OtgNvy19i1tsWTxLXsJa1bRMtvKljO9mXNGk+inza00xIRUy68kDfqNCew7FZOCwjFT7Yd0uCsc6 OLNQaLvSIJUx6HTsfE1apz672H+JBsRZvCunCc3YzrxlFh5BGyqNXLe7gac09MMDdvssWUneiTxn YsZxzclS1N2mcloxgbmf2duy96shwZrmq1L4/dFS9Gb5afE7jJL7nIOcUa1mXMfqc1JUYGSCXULF pCesWAwIz4RiMuAUk1fmI9v/w/Hz2X+0tETzb33gjX4dK8/m/dgtY4wUndNJO27HdTlX38yNE2Jt d4mpsGaeQh8/Xsye/9nAJxdulp42lMa/km+Js2g+OiRZ0ywr+WDNqpkWT7KvzBV42MM2ruZSahtT 8zSx+3pzef0za1ox2QDnS4NCKCYDi7MlH4r/FApH598rVb7gWSvvzGhuoClP4cNdHVafzLg2T/4p 06uckbZmmMoyIzkuT87uy0nLZ6fP5lt7J2feRXDtO+m4OV2LfC9GTwupBv3GBA029BA2kNvLQa6p omLy/jwtgf3nRTYYWwvZp0uqmOxSKCDre3MJ+PulxFahmASlYxrLZykdfXOWln7W7bbL3ZI1ZXoD NzRVWbEqo0KyPEfiRKxZbP5VByeMsbhp8NtOIj8FjzNoS3Z7JiQc9Bstjpciia41XlM1J09tqRji xhkfakphxMESDNaXS+vJ/5NqjVwqLeGMxxlS6fJQTILSM51N25OCsluhcHeNxpmNWzL+iD/k/Gn+ PhP1zwyWm5XCf08wN+/KrTlfWPKU2hMa2OG32JXsCprC+S/oPy6ygsEewXI6bOng6mUhbuWYjDNy fjc6TZyCJRisj5P8B+AYXCjlengbvoRPhGIS1KA1YMhIdsDueYr22c68FsFcSnr2V9yacdssbu/Z 0kVtch0bzOEzkg/JyEIItzTwrT24eukLkLWuR3aHFBF+CM0ToyfWNIOxvzTrf630re2sOsw5xr9R P6vfmcbyDamQ6HLYcokjCQe4YvIDTJRisJfDN4r3O0km3tVCMQlqnSsZMZT3Zrw3Z+eM7Ysw2K60 S2bY23JubUxWhNtreQmoWK7ZW6p5NcbcCKc/4tRmvb0e33oo2UV4gfydjP5X9L6a5ddSNtM02Jed i71do/vwunbrOKR6gRuVlNb/sxnnNvHJ6EqLP1i/Wyogdha+j50ln5MVpfTTnwvFJKhHi8pybNPA tlKut22lMPpB81FW/pFxd859OXdn3NvB/WMWngeoasxgudd5f8Z+0vLsiOKj13FJBz8eoy/r81Qu xdik/Ly4K2PDAbA22b8YG/6Dtytpf5+HFldjT7mvOMh3q9WMNjbJk0X21aGsNYrnQzHpPZZV3tli KCZBbw/ow2amejDbYts8KSxbmDfyp5M5UjKqTkXl3gb+0c4/xvRznZGrGD4otXXHwgl4J3Nzy+QZ N2PKLC7ZW3/U6LlqFQbfKTnUnkRz1A6p3bHkNimfzTFqobhfiw9ISf/+a4j1ja1e2HMrbRl75Bw/ eq67RCgmS0mDZML7SSgmwUC2rIxgk4YUnbZFXvyXfLAGLeBrL+MfOf/O0lrz/zIe7eB/DTzRyHOv 89xeKSS7x+1YhlUHp8zNG2ZslKdZ7FbebOlpl5SRawbxi92SAtXPVJoxLSlwHTsz5qboTTXJB3Gl pGxvUPTtsisnf8M7ZQ42zqQqWk32yrkq6ucsmWIyWkpPv4m5Jt++ssCEYhLUlcKCzbKksGycpZD7 DcwtANgTnst4taMwk2dFscGMIR3JYiljFQsvJDhbSvf/F8yYw/TFUXr6UDn5oZSU75E0625+NnpO TfJnDMVHlTcT+FwmO1TuIrk7HWSrajVjQqqf8yDelvHBJq4KxaTnPIXv4nfmXUMcJlWZHBeKSRD0 nBmsMDMpKGtj7YzVO9L/NSRn8hXMLUDYU2YX9+qTkgXkoTz93bMMt49K/iMl45bBPH0DdsQvad4/ ekdNslrR9/KaaO2ZhlrJP7Gm3CgHLWkI/NLTynEZP5ISPu4RiknP+Su2X8BnG0uVXkMxCYLe78DZ NawwmOUaCz+WWYxspKGD2YMLs/niLvuUi+nr0H57UsSyT9N0dlz5oM+Z5Gsy35K7ykE+WOVJyqMY 3sjmu6eov6AH/MSCTc/blPu5HgRB+Wnbn0pO5XWmbR3yCPqcqVbV4mUtOkyq3nIOVDi7Ql55cxHU AUXDYu7/NWnJZpNuf9vjK9HDgyBYOpouJ/8ZhtJwKVeOCJkEfcpYT8mci0zmq1WeQZ+OjoxDprFq XJye8Xkpq1++gL+yEhaTIKgZZgyjcnuynLT+PORRs4zAd6iuFaJHXGQNLV7VokOLLavZlApXFVaT r0cX6hlPSJE5y3XbPgRfDsUkCILeYdpmVF5OyknbkSGPmuQ7xbP3tzXR2hZnaJGb5JJqNqOVXQvF 5Impb844HcyHX1twPoaRoZgEQdCLc8eDCn+TmVR2CnnUHCuaG6GzT+lbO8mahdWk3URbVLXnc3Oh nBwxEDvO4vqYnIAD57M9k4p9BUEQ9BLNk6QsmENwBW3rh0xqiuekvFekMNihpW7tQR6X+zkaNDix yjPp04uXx09Y/HG65lncENqHpSyWvXW8frzOES4cBLXH1EaWv0ZKn/83sp1oeiXkUjMMStfNFlIC vXKnW7/E2to9jEa5zR1UnRQYMxg0M42362bs3cTVA6nTLK4mdhHej82kdNudf+/Ez+MeDIKgdxnb TsdYqcjZ1pjKjEEhl5phjmRpby3+ys0BHsHFaJQ5qVrNGMWcnDOLWfXxA63TLK4VYSUsKFX0W/FY Sc8zLCZBUNNMexsNf8LqZC3scTBZ+I4Fvc9E62vwADId3uHg6iQ6u5IRQ1O15hXw7uZURmJAsLgW k1fNv3qqEislQRDUPGP+Tr43XiEfT+UbIZOgTzjYP+XOxyANTqlWM/bhpZzzi7fHDqRLsLiKyT3K W0E4CIK6ZvRfyT6GOWTfoPLJkEnQJ+QmSEUy9zHZqGo1Y05ygp2FsdNZJxST+fMP/HIBn0X66CAI +pimq/FpaXn2J7QdEjKpSVYsdesO9qSscNTNnSqvjivA3jyWcxkGtXPMQOkciyvsd+MgTDGvr8lw nCiVui6n/hs+JkFQR1SOlWaT7TiY5ilLdpy2/clPKmal60tVneEtND8ecu51huEsfFAqZ7Ign8V3 SSVQ9ireX1f8Xxb/xbdxe5+2dKrlzPIg1pQZa5zL5rvfJLvKHKgz50iDnRzojwvY9zCZC4t33zDI ZB/z94U1o5V3ZOlcX25k7d15YYF3BdtkHJlzVLHp5JzLR3NnPXeqGyw4HX2kpA+CoB9p/WqRgG0O rR9ZAqVk3+L7Y4vHREbb54tt24R8+4zfFs/kRRWqW7bY7+/dtl1SKKT79nlLWxyhRa7Fv51r+EKU mGWK/XItC1BgkmJyfbHPvxarp/PbIuHaIiN0ZjCs2PdftdpBFncp5ywpg19DYYHo/BsqJdAJgiDo J0Z/W0p73pgiddr2Xsz5SuGjMrMIY81ymk4j+ynWDPn2GUdjNo4sLCMLojNfzexu275UjEGf6fOW PuwCKRpmHcsupOzKWK8Vr/6ED5k4H3+QFtvL3ojweX0xW9I5vn7ulgUHoIBRc4/9eq12kMVVTK6Q TGrdLRCzcHLcb0EQ9C/NX/VGdtj88rQ002MKP4ehh8+7uf0nUmqEoG+4V1qGa8CPl2Acern43/eV pyfo0OEz6MAXXeztC9d1nYlGDfNVmj6tY8mCR5pTDph7sNbTfKTeO8jidog5kp/J9Xgej2CqtFb4 QtxvQRBUQTk5vpgYDSH/Rc8dYrNfFC9Op3IeVxYD3Zh7i3T4Qd9xMh7FxlLCzsWh05fx2n5p6cFu kRKIDtHoxwvd91VXSKkzjphn6ediK2N1B7t7SZqQkeecVrw9IRSTeWnCL/B7jJUcmCbhG1L21yAI gmooJ1/HSWgkv5C2wxf9nT+fQXaKZAH+BEPvorJnyLJfeKkYQzZnkYP1MOxQjDfnSwP0xfhuv7V2 iJOk2j97aLFgq9xRZkspNVY03EFvbG90qOyNnCRLxDAm4wlsVVG9EOYy8musO3+FzldK3O5wfg2C AUHbSYXzageVHvogXPtOKr8vvpdTOY0JDSHL0jy7n5GKAb4mWebXq0pLJjuycFz9n6nzWeprKcaZ KVYxyeta3COXmaBBi9+ZYdAb+7W4f4l6N18pHFsXai0q9rm/Vi/64t58d+HfC+g8EY4bBEGVaToV ny/enEXlWynaZmHscTtNu+AQzMTn2PGokGVpeEqyyn8Gy+MHVRlvDnSe5GO5utlvLKvMb7+nZSZj My12s5Hd5a4zypxeGLDPktwodm9lx3q94IurmCzIj2RFqXpkEARBlWk+newTkk/c12g7/82F/9q2 pbLh3PdZTvNE8sL8no8POZaOizAR++O4fv/1TK7DkXhF7mCTfHAh+/64+H+s3OFFivulZndeyDmn GLy/uKTHmcaq9aSYPC4JYw0sJzktfR63SMs8QRAEJaDpQrIxki/D4cz8LdO6P4xPe7M1ZVCnify5 kGG/s6di0H1jeJ+XXMr6ey++h137vYUH+6dkvUnKR4vlwVSN8/wf53a5G4pzetXBnizOYKktPQ2c lvFazr5tS2AQmMEKDWlprG4Uk8l4ulBEXpLCl45JsxK/iPsqCIISKSfTsRv+h51TdeLpm6bP2h/C Xlx7FlOXmfudjv3SAJj/OOTXr6yAFilj6QHFts7rMqzLfq9I4bIzcSnW6veWDnG6ztwmnbXj5lil aN2qXUbXMwsFZm4iucssO59zWrxezZM5FxSK24ndP29LSehkLJd3U+6u5S0z+UXW11lzl5KeaG+7 SuHB3VnFXMekshM+MEEwYGlbm/zX2AYvkB/G6CuoPC5Zf5/AX8ka6BiJkxndFnLrdw6XBtznCuVk b3OTqH1Dqhlz3xu2ixSZ808p8OKSfm3pJBvK3IYRMt+Tezs+hCvlfuQgfzDDII+5xPgi78hk79Lh 4zJHFqPvBI1aFpWSfr49mrVzHkZjA5vuwUO8kZL+0zkfL3a9XVrpaMDa2BBDBvG23VLtu5pleqGV NtbwOURUThAMaK4aTuXSuRE7rWcybWjIpXQT5V8Xz+ubLSLDadWZ7ONFhM1LJtuov3++woUV8rZ5 l78GDHkP/24KxSQIgpJbT46k8nqhoNw6rwNsUAJWlhJ35spbFHYuLaYUyslfnNu/itQ03lZhToXX r+Kt9dQJeuJj8mvppAeZtz7OIJxS7DNVJHwJgqD0NP0M75HM4NvgNloPCLmUhmcwTlrWubT0rZ3t 0/gPtje8f8uyjEnFDX+JoYOrEaVUZXaez7YVk8Iml8pPlz0ZUVhMgiDoOt9cntZLuiRVm5iWe4Jg MZnifVrM0qLD5P6tY1NJWWA7Krxc9hDgvmZzydFmJl1S7oZiEgRBzdH6aSqvFcrJHSkLbBAsJi2O LpZ0XtZiy35WTq4qfE2+Xy/iXNxIlQ9LntAzJQ/kP9SQYhJROUEQzIdr30nHpXg7ZuNkhp7CqDkh m2AxlJMLpCWof2mwvQM93U+KyTb4K+a0s+WePFjromxYjP2+Ja1nPSZVGP5D9MQgCGqfPW7nxXdK Sbsa07Nu5q1hPSkNI3A53l/qVs72GdyK9XSY9EaytT6mmdvyVNxwSGNKWT8gGImrCqvDdZJ/yfzY ocTnEEs5QRD0gGvfS+XBYmlnFq0TmNoYcqkqxxfP8Kewfqlbeom1tXhCi9wk5/bXz17FKhWerZC3 zk1QV9c8UHSK88w/rrxBSrY2NRSTIAhqn6uGUzmVSnuhoNxE2yYhl6rRgKuL5/gdUjmU8pKcYV8r lJMv99fPtvLxoqrwC9N4W713inwx/kIxCYKgTrh2Dyr/ScpJ26u0ncQtg0MuVWGklPU1xzVSuooy Kyd7azFHiw4tDu+vn60wuVBObpnKkFrWRBfFDRhq3hwmXf8aJYtJ1MoJgqCO2ONaGrfEReTLkJ/C 07fR9p6QTb/zgpSi/ilsqewJxQ50ldxnijHyZybbpz9+tjEVOfwntl2eM+q5Q/TU4WiXEp9DWEyC IFgK2namct/clPaViVy3csil39lGLWU5new7b6Stb/He/vjJVrav8FphOflcLV7kgRJCG+HCQRAs JbcM5unjpJLxQ6XifyfQPDFkEyxg5MlMcYHcYXhJgzEO9Mc+V6PZP5+bOffDzVwZikkoJkEQ1C3X bkTH2fhAsWEG+acY/UDIJngTUzWa5QIcgld12NvBftcPyslX8pSZ/eUOdh9T7np2oZgEQRAs5SMl o+0g/AirkL1GfiZDv82ol0M+/coO2FhK/llOJmiwoQtwaH8qJxVvJH17DqOaU1RT6WmIPh0EQbDY c7o8LeFkm5O1kA/Dicy8i9YPhXz6jbfgWlyEY0usmHR42MdxIYZrcJWWNyxufcaLHCml8lgR06ez aXSZEk1vQgRBEPTh3PRdVG7uUhTwd7RtEXLpF45GR/Gc/2bJR6JMi58UDrEzTXJwX//kVIZUqBT1 dB5to/Q5ecJiEgRBsNQ0/4WbdpT8CJ7CKPK/0XYG00eGfPqUHxdyn4Ov4xyUM1tvJvewo6UlwCEy P9fi6/K+czUYy6zZfDjjhpy35lzfyjvKfEHDxyQIgqBXuW5l5nwbRxQD5P/Iv8TNE5nQEfLpMz4o RaL8AoeVvrWTfELmbClZ3MWGONJYs/rq565i+GB+hSY838HosjrEhmISBEHQJ1z7TjrOxE7FhtvI j2f09SGbPmMr3I+ZNdHaFnvhEiwn8zuz7Ocwz/fVz01lyPLp9z6Ml/HBZmaEYhKKSRAEA4Y8o+0A nIq1i41X0n4Cez4Y8glM8Q4dri76x3/wUeP7zpIxlcblkxPuwXg1Y98mppdJJOFjEgRB0Hdzv5zm Kby4MU7Ci9iHxrtpPZe21UJG/TLOnSTV2ykfB7pTh/fJ3IJ15K7X4ui++rmxtL+YQogvwvCc31T0 T8r8oNu0JUQQBEH1uWqV5BBbmV1E7zxH5URmDAvZ9BnHF2PAI8o8AM8wyCSnFoX/ci1+bbIV+3BQ zCqcVaSun1NJPlFBKCZBEAxM2rZIEZyd4cWtf6dtHBPCit37bIg/F+NALjmAlrfezmQf1uJ5LXKT PKzF9n35cxVOLJSTvJKWHKtO+JgEQRBUjUozfojNiw13kH+Z0dNCNr1KAz6D72AEbsCupW3tROto cKmU1XYOfmqIrxirT7IKt3JoxnlShNBFQzlyVPrdql2sIAiCoCo0V7jpHeRjyf+BrciuoXJjqmgc 9BIdUr6TzSSLybdL3dqD/cezdsUPii3HmOUOk+zeFz83mp/n7JfxGg6byVHVPP2wmARBEJSCqUMY eSj5t7B6sfE6fIHmO0I+A5RJttLgfLntii2XafBpB3q6t3/qWt7bzqdW5bDtmB2KSSgmQRAEmLY8 jV8k/xyWQzsm0/Etxvw95DMAmWGQ/zpe7htYBn8x3rvr9XRDMQmCICgl163OnK9KhdiGYDbZROac zJ7/DvkMQCbbQO5cmbON86tQTEIxCYIgqALT12HOV8gOl5wTZ+MXDJrAbv8I+QwwcpmsviNNQzEJ giCoCSob4msYJ9XgmYmzaTouJXILgvogonKCIAhqguaHaT6EbCPyn0nWk9VDKQmC2iRu3CAI6ozK 5ly3QcghqDfKurzxSayIZ7ECvr+UykUs5QRBEARBsERsh0u7vP+OpU/2EhaTIAiCIKgBymhFuFzK zDeleL89JmLTbvttYG5WvJ4oO4tKRrMsXunH8xwq5SeYU6PH70v64lr0tjx683iNUjjoayVqV28c Z2mv49LKpTfl2pdyW9J2Lun3Fue6LMn59NXxe3rcvrruPfn9np7PovbryXEW1Z6lbW9P5Liodp6L n9WDYvIADsONxftV8BSGdxNQo7TM0xOWx0qL2OdnUr6A/uJw3IubavT4H8VDuK0Pjt0X16K35dGb x9sQH5aWLMvSrt44ztJex6WVy5J+fz2MwU/7SW5L2s4l/d7iXJclOZ++On5Pj7u4cvk+Tuil3+/p +Sxqv54cZ1HtWdr29kSOi2pnM/6A3y9OBx1UQsVkHbzU5f0Lxf/V0DWpUDue6eExn8E/F7HPS7i1 H8+zqRjYb63h4/+7j47fF9eit+XRm8ebhff10rF6q129cZylvY5LK5cl/f4sqcDbrf0kt6Vp55J8 b3Guy5KcT18dv6fHXVy5NPbi7/f0fBa1X0+O89JSfr6o3+mJHHtyHsMW9yYqY7jwI4UJqpMRhZno v4IgCIIgqGvKqJjcgXW7vF8X96tiQaEgCIIgCAauYvIj7NPl/T7KXqI6CIIgCIJeoYw+Jjdhaxwv rXE1YGpcqiAIgiAIxaRanB2XJgiCIAgGHlErZy439vPvPYQna/j4tXYtelsevXm8F3FXydrVG8e5 scpy6U259qXclrSdS/q9G/v4fPrq+DdW+brf2Ivns6j9enKcG/u4vT2RYy2PM0Ed8mXsEWII6pAt 8eMQw4Dh+hBBucaJsJgEQRAEQVAaQjEJlpSX8HqIIahDZpub2DGof54OEcQ4EQRBEARBEARBEARB EARBEARBEARBEARBEARBEARBEARBEARBEARBEARBLfOWEEHd04hm7B2iKD+DQgTBQlgGf8X+uL/Y 9kmsiGexAr6PvAefBUGZuB67FK+vwgejf9ctb8O5OANXd9ke13rJWR//6LatHavjmZBt0JccX3SY TYr32+HSLp9/B0f14LMgKBM74GisVfwNj/5dt6yIf0rWkq7EtV46Potti8nrMKyHtpBt0NfshXd3 U0wux4Fd9tke9/XgsyAoE1dgKo7EiC7bo3/XHz/A9Plsj2u9dAzu9v7oLgpGyDboE9bCp4rXXRWT B/CeLvutUny+zCI+C4KykBV9+zzJ5PwYNo/+XZc04L/4ZfH/XrwrrnWfcANWC9kGfUUjTi7+d1dM XpMqr3bVmnOsu4jPgqCMjEAr/hD9uy5ZrbhGB2AlXFTMzrO41r3K2ua1Si21bMP5NejOp3CB5MjU nUewbLcH+5xiNrKwz4KgjLyEY3B79O+6pHMW/kvMwrfxcDFLj2vde4wtZNxr40RUFw6681nJWSw3 11P6PpyOO7pptutK0TqzF/FZEJSVJ/Fo8Tr6d33xWHF9VireP1H8z+Ja9yr7S35b4j4K+ouuSzk7 YEqXzybgoz34LAjKwurm+pTAYTgi+nfdMhGHFK93xN8KxSSude+wAX7XbdtSyzYLuQY9UEw2NTeP yaek8MpZWBXfMNeysrDPgqAMvEsKV7xHyl/yXym3RR79u24V0e/jFskXotPPJK517/AlvICfdtse sg2CIAiCIAiCIAiCIAiCIAiCIAiCIAiCIAiCIAiCIAiCIAiCIAiCfqUxRBAsAW+RcgI8J6UYDkIu QdBb903cR0vGelKekOfxaogjKDOnSjHiv5Di+Empms/G37Fxse1E/KiHx/woZupZ4aV6KHuwgpT5 Nsev8U2pOu1uSyGXembDoi99C2fgf1LBvIGaN2kTfA9fLu6z0/Gz4p6sF3aV8lncgI2KbXtLGT3H L+bzZKDdR51y+iu+gMuKbYvLXsVxRsSwF5Sd4UVnPbjb9vOwU5f3W5m36uOiboAberDfZ7r9Ri3z nkIx6VTkNpbqPiyJXOr9IXuNlDipk43QNkDl8SFciZFdtjXiwmJyUE/8DL/t8v6z83nu9OR5MtDu o5HFs2Vs8X5TPL4Ex2nC7+tBIFHEr/55FXd3GVBh/WJG8ocu2+5YjGOOwoxFKENn4uP4Cv4sFWqq 9Rnhf/Bgl4dJ42LIpbOK5pw67mtvkTJAvg9Pddn+kDdnhhwIrIWzpGWJF7psb5eyka5dZ+fbiskY gi2K/nDWEjxPFvV8qTdGocPcCr2NliwT6m7mrfIbBKVmEi7v8v5ccwtbDcZBxY2werFtGE4oZi7f w9Hdjvc37NLl/R6SufYQKc037INKHcnweqnq8vJ4r5TGvGkBcmksPnu2eEhnUgr0DyxCZrXO+fjq QhSznSQr0/rFtq/gL8XrDJ/Gx4pZ9l+Kwe2txXGvLL7XIqUUr4VJ1UVSuu2eKL3PSUtgP8Upi+gj 3beXRUYjJevs2OJe6f77Czqf7s+Tru/n9yzKimP809xCtLvgI8Xr8bizhu6bc3BTcY9sXigXB/dQ dvsXz9pDiwnADjHcBbXCSYXVRDFgjuv2+XbS+mbng+AmvLt4v1JhXRlcvF8Zr2Bo8YA4DV8rPvuw uQWdfiTVUagHlpPqOpxXnO/9XeRjPnLplOnvuzw0X5fWzBcms1rnIey8iH3OwHeL12tLJvusGMQ/ WGzfsrC4dA46Z0nFvsZjjcL6UAv+Kn8vZsNdacLnir8Pdbv/dizus+EL6CML6ztlkdEf8DBW6bJt Ye3uft90fb+oZ9HzxbkuJ/l+HVtsf5va8d/JCgXrSsmy/GAXxX1RsjsFnyhev6OQR6yCBDXD3l0G xh/P54F1guTQSXKWPb/LZ1tLhc6yLjfGdcXrozAN7yxmv9811/Hqr3rus1J29pTM751+AqOkomBd 6SoX+GIxw4Ofm2tiXZjMapkhktVt5CL2ey9uK14fUcz4DsCvuuzzOckBsJMHCjk1Yr9iEKoVeaw4 n88elnxuOu+p43CXuc6eC+ojC+s7ZZHRA/h2t20La3f3+6br+0U9i+4slLr9iz7TaWk6udvgXmY2 LvrJdpJFdY65luuFyW6vQpnplMXHu91DQVB61i86/2mSubg7lS6zkoe6zfK+VXyvkx8XNwjcXsxS 3tFlFqO4cV4sHs71wBnmLjl0yvO5bvt0lYviYbIP1iwG2RMXIbN64AmsM5/tw7u8biz6xpq4orCK /NHcZbGR+Je0rEMKgZxjro/U+VJ10lrg397sR7JGcS+O69ZXvtzl/YL6yIK2l0VGGxTn9r5u2xfW 57vfN13fL+pZdI0U4bSlFMlzoWR126OG7pljpSXfxuJe+HehZC1KdtcXClnnPXVPl3smCGqCBsk8 +pX5fJZJoZzrYbViwO2cbbxVMrV3Ddu7p7CEdA7OW3b5bBvJFDu6mPVsq/Zz5WTSev0Pumz7cmEF sQC5ZNJSxPpStNOdxWxo84XIrB44WVpSyLrIbj9vjsy6QfJ52r54/1wxqDZKa+v3Scsa6xQzxkqX 4/2n+N7ba0AeRxcDaVcL5ZckR8dVu1hWXu42YVhQH1nQ9rLI6Ggp70j3CcnC+nzX+2Z+z5eFPYsu lCKBSMuld5m7tFErVAoFvavydXuXPrMg2T1b3DMNkn/Jq8V+b4vhLqglfr4AC8bgQkvvXO/+BH5S KBdHS+u3nQwqBtxti1nwkcXs9nQpNHiDYr/DcaN5I4FqlS8Ws8CbC6vHj6WIoxELkctgyeT87eIB 82AxC8oWIrN6YIhkfp+GiyVHzs3ms9/pXSxICqXvjuKhPFxacz+i+OyXkpm6U86P4Ri14WOSFdf4 wkIu35F8H/btss/O3hwRt6A+sqDtZZDRuKLPP1OcX2MPzqf7fdP9/cKeRQqr0ArF6/WL+7KWcuV8 olBSb+pyn3RanU5ehOy+iz9Jy1er4lHJMXag5goKgiBYYgYVD9PIOh0EQRAEQdXYUPK3OFYyywdB EARBEFSNT0jJt9YMUQRBEARBEARBEARBEARBEARBEARBEARBEARBEARBEARBEARBEARBEARBEARB PbCalCW42jRIKc3PxrpxWYIgCIKgd5kglYfP8SOpWulo3Fpsuwsf67L/u6SiYC/ov0Jgm0vVUPMq ySgztyjaYIwv2rLJEh5vPRzWx20+UtRCCYIgCGqU04qBdv8u2zaVqtDeMJ/9TzBv/Zr+YKsqKiaf 66aEZEuhmKwr1UVq6OM2N+BrUoXiIAiCIKgpVsdsXNVt+2XFALxht+2V4jv9ySZVUkx2KxS07krI kiomF5u3qGNfsnzxe1GsLahbGkIEQVCXPCFV+R0j1ajp5L/F/yO6zfhnF9/p5F34Po7H5VIV3E72 x8tSifumYtua0nLQdCxbbBuGL0jWmz9L5dkXxYK+M0SqmHsr3ilV6n2gaPPo+RxnZ5wlVWn9QTcZ bC8VETwRP+z2veFSRdvOY49ZRHvfL1XzfWkx27kSvoyH8HZcUezz+eKzn+CveBLNXb73Ih7HntHF gyAIglrjw4UV4BtdBv0b8GAx4A0ptn8DH+323f9gy+L1HsUA2pXvol1yYO3kZ1iny/tzi8FZocDk 2HURFpMFfScrFKgc50jl3xuKgf+ubsdYsxjAO61Ck4vv5ThpIdaRvLBGbFgc+ye4cxEybut2TovT zlHFfodIfi6jC2XvFKxY7HMcbu72vWa0RvcOgiAIao2heAaPFBaCAwoLyAnFgDi2GDTvwDLdvntC l23vkJY+urJKMYh+oXi/LC7s8vlmuM/cJYdheBWTFqKYLOo78/MD2aqw9nTl8MKi03mcj89HsVqQ YrJpl/c74fVFyPh/3awxi9POTbud/3IL+N6L3b63Ll7BoOjiQT0SSzlBUL/MxBSsVcyyD0VLYRWY I0V5jJKWDF7r9t3vFwPl0YXlpbHb50/jF9KSUIb9ived7FAMsB3FYPtaoehsuZD2Luo7+QLOsfsA /UqhKL21eP9QoeT0hK6/8VSh3C2IkZJfzrMLOcbC2tl9v5cX8L3u/ivPSUtOq0QXD4IgCGqNbYsB 8FZc2WX7L4vtf5JyeHRnZ2kpY4QFO6luX2zfBRd0m+icIjnULozux+3Jd7pbFObXtsH4Ku6Wlm7O wXt6aDFZ1LG7skHx+ZAlbOf8tvX0/HLzLpsFQVhMgiCoCW7DPdgGP++y/bzi/1vxh/l87/zCsvLS Qp4Tf8Ut+BYeLiwdnbyA93lzpM825jrHdmdJvjM/ZkvWlr1wKj6JG+ez35CllG2npWRkP1/TFSRL ymPRvYNQTIIgqDXyQiF5Gtd02T5d8j1p6aZQdLKi5GOxAcZ1sRCs2G2/n+K93ZQe+HUxs79B8m15 H74oJTJ7pZtiMLiH3+lcVukaKrt8t2OQwoGPkJapmqQlorW6fe9fxfZVi/cjupy3bq8XpBQ9j797 c16Rnraz+35DurWFuUtQXZ/Vq0jLU+3RvYMgCIJaZE1vDoslReNsvIDvnC5F7lxQWDDuwwys3G2/ 4ZI/yvxokpaQXsU/pfDYTl+VDSVn2VxadlllEd8ZVOzXGe2ymRRmO9XcyKPOY7+9sCbk3f5u7KJs /EAKnd6nUBB+WOzzG2xR/F1VbDt1IZO4UyVfnU562s63dDn/4wqry5eL95dj6+LadEYUfaaLgvQJ KaFbEARBEAQ1wNbmzZnSWFhMDsBRfaD0/aKfz2+itJwTBHVJY4ggCII6YhD+gmPNDfXNzQ25nSVZ YnqLlyWr0Qgp90tfM0ryL/lDXOogCIIgKD8rSM6v50mF9YZKDr7jpfo4fZXK/RjJUtOXbNPH5xAE QRAEQR/QbG5uln9I6d7f0w+/+64+Pv7WcWmDIAiCIAiCIAiCIAiCIAiCIAiCIAiCIAiCIAiCIAiC IAhKxP8DYLIO+IGJ8mwAAAAldEVYdGRhdGU6Y3JlYXRlADIwMTctMDgtMTBUMDA6MTE6MDIrMDA6 MDAodBKeAAAAJXRFWHRkYXRlOm1vZGlmeQAyMDE3LTA4LTEwVDAwOjExOjAyKzAwOjAwWSmqIgAA AABJRU5ErkJggg== "
       id="image852"
       x="2.4103751"
       y="6.2786551" />
  </g>
  <g
     inkscape:groupmode="layer"
     id="layer3"
     inkscape:label="Cones blue"
     style="display:inline;opacity:1">
    <path
       style="display:inline;opacity:1;fill:none;stroke:#0000ff;stroke-width:0.5;stroke-linecap:round;stroke-linejoin:round;stroke-miterlimit:4;stroke-dasharray:none;stroke-opacity:1"
       d="m 20.572449,44.039071 c 4.083221,-2.869425 8.157899,-6.310083 11.44989,-9.412473 1.991147,-1.876467 3.939362,-3.79956 5.97344,-5.629402 1.203117,-1.082316 2.334227,-2.007973 3.683592,-3.162472 1.349365,-1.154499 3.129234,-2.855071 4.41363,-3.763296 1.284397,-0.908225 4.98423,-2.106148 6.995058,-1.655415 3.76863,0.84475 6.679853,4.432876 8.582783,6.375613 3.008028,3.070953 6.294326,12.651716 6.861668,14.240458 2.522315,7.063305 4.077502,9.899191 7.279576,15.256829 2.08793,3.49349 4.145918,6.530992 6.951113,9.47968 1.821821,1.915007 3.757309,3.75352 5.912067,5.284298 3.467899,2.463659 11.162727,6.185194 11.162727,6.185194"
       id="path103122"
       sodipodi:nodetypes="cssssssssssc" />
    <path
       style="fill:none;stroke:#000000;stroke-width:0.312103px;stroke-linecap:round;stroke-linejoin:miter;stroke-opacity:1"
       d="m 52.142183,16.876364 v 2.7475"
       id="path65739-38-2-2" />
    <text
       xml:space="preserve"
       style="font-weight:200;font-size:4.23333px;line-height:1.25;font-family:'DejaVu Sans';-inkscape-font-specification:'DejaVu Sans, Ultra-Light';stroke-width:0.264583"
       x="86.59964"
       y="68.776642"
       id="text107729"><tspan
         sodipodi:role="line"
         id="tspan107727"
         style="font-style:normal;font-variant:normal;font-weight:normal;font-stretch:normal;font-family:'DejaVu Sans';-inkscape-font-specification:'DejaVu Sans';fill:#0000ff;fill-opacity:1;stroke-width:0.264583"
         x="86.59964"
         y="68.776642">S</tspan></text>
    <text
       xml:space="preserve"
       style="font-weight:200;font-size:3.52778px;line-height:1.25;font-family:'DejaVu Sans';-inkscape-font-specification:'DejaVu Sans, Ultra-Light';stroke-width:0.264583"
       x="48.806458"
       y="15.846616"
       id="text55470-2-7"><tspan
         sodipodi:role="line"
         id="tspan55468-7-4"
         style="font-style:normal;font-variant:normal;font-weight:normal;font-stretch:normal;font-size:3.52778px;font-family:'DejaVu Sans';-inkscape-font-specification:'DejaVu Sans';stroke-width:0.264583"
         x="48.806458"
         y="15.846616">420</tspan></text>
  </g>
  <g
     inkscape:groupmode="layer"
     id="layer4"
     inkscape:label="Cones vert"
     style="display:inline;opacity:1">
    <path
       style="fill:none;stroke:#00e100;stroke-width:0.5;stroke-linecap:round;stroke-linejoin:round;stroke-miterlimit:4;stroke-dasharray:none;stroke-opacity:1"
       d="m 40.334963,57.851479 c 0,0 5.93422,0.372585 8.903885,0.509389 2.902115,0.133692 5.805113,0.288595 8.710263,0.3043 6.914966,0.03738 11.6012,-2.437969 15.597933,-6.035847 6.056733,-5.452309 11.216543,-12.10302 15.047142,-18.836412 2.483025,-4.364635 6.879571,-10.44655 9.131329,-11.981547 4.382315,-2.987365 7.769985,-0.168648 9.255905,2.763763 4.54884,8.976998 5.84184,16.257852 8.86895,23.973761 2.62746,6.69722 5.13266,13.391889 8.41717,19.149779 1.97686,3.465516 7.34193,9.028996 8.56785,8.546782"
       id="path114863"
       sodipodi:nodetypes="cssssssssc" />
    <text
       xml:space="preserve"
       style="font-weight:200;font-size:4.23333px;line-height:1.25;font-family:'DejaVu Sans';-inkscape-font-specification:'DejaVu Sans, Ultra-Light';display:inline;stroke-width:0.264583"
       x="125.66845"
       y="68.778709"
       id="text107729-0"><tspan
         sodipodi:role="line"
         id="tspan107727-3"
         style="font-style:normal;font-variant:normal;font-weight:normal;font-stretch:normal;font-family:'DejaVu Sans';-inkscape-font-specification:'DejaVu Sans';fill:#00e100;fill-opacity:1;stroke-width:0.264583"
         x="125.66845"
         y="68.778709">M</tspan></text>
    <path
       style="display:inline;fill:none;stroke:#000000;stroke-width:0.312103px;stroke-linecap:round;stroke-linejoin:miter;stroke-opacity:1"
       d="m 101.60758,16.876364 v 2.7475"
       id="path65739-38-2-2-2" />
    <text
       xml:space="preserve"
       style="font-weight:200;font-size:3.52778px;line-height:1.25;font-family:'DejaVu Sans';-inkscape-font-specification:'DejaVu Sans, Ultra-Light';display:inline;stroke-width:0.264583"
       x="98.203964"
       y="15.846616"
       id="text55470-2-7-4"><tspan
         sodipodi:role="line"
         id="tspan55468-7-4-4"
         style="font-style:normal;font-variant:normal;font-weight:normal;font-stretch:normal;font-size:3.52778px;font-family:'DejaVu Sans';-inkscape-font-specification:'DejaVu Sans';stroke-width:0.264583"
         x="98.203964"
         y="15.846616">534</tspan></text>
  </g>
  <g
     inkscape:groupmode="layer"
     id="layer5"
     inkscape:label="Cones rouge"
     style="display:inline;opacity:1">
    <path
       style="fill:none;stroke:#fe0000;stroke-width:0.5;stroke-linecap:round;stroke-linejoin:round;stroke-miterlimit:4;stroke-dasharray:none;stroke-opacity:1"
       d="m 40.874316,57.052755 c 0.122503,-0.239272 10.19191,2.506598 14.991135,3.687908 5.682207,1.398653 13.075105,2.297013 17.506251,-0.385839 6.651612,-4.027252 12.501149,-9.840298 16.982485,-15.961577 5.419917,-7.403332 11.012363,-18.550547 16.108993,-22.162153 3.68985,-2.614725 6.54931,-3.046678 10.06028,3.184774 5.03174,8.930586 7.54748,19.381056 10.74974,28.103615 2.06471,5.624021 4.57337,11.383183 6.42009,15.676819 1.12146,2.607399 5.5147,6.737091 5.5147,6.737091"
       id="path141527"
       sodipodi:nodetypes="csssssssc" />
    <text
       xml:space="preserve"
       style="font-weight:200;font-size:4.23333px;line-height:1.25;font-family:'DejaVu Sans';-inkscape-font-specification:'DejaVu Sans, Ultra-Light';display:inline;stroke-width:0.264583"
       x="134.97824"
       y="68.778709"
       id="text107729-0-4"><tspan
         sodipodi:role="line"
         id="tspan107727-3-9"
         style="font-style:normal;font-variant:normal;font-weight:normal;font-stretch:normal;font-family:'DejaVu Sans';-inkscape-font-specification:'DejaVu Sans';fill:#ff0000;fill-opacity:1;stroke-width:0.264583"
         x="134.97824"
         y="68.778709">L</tspan></text>
    <path
       style="display:inline;fill:none;stroke:#000000;stroke-width:0.312103px;stroke-linecap:round;stroke-linejoin:miter;stroke-opacity:1"
       d="m 110.8315,16.876364 v 2.7475"
       id="path65739-38-2-2-3" />
    <text
       xml:space="preserve"
       style="font-weight:200;font-size:3.52778px;line-height:1.25;font-family:'DejaVu Sans';-inkscape-font-specification:'DejaVu Sans, Ultra-Light';display:inline;stroke-width:0.264583"
       x="107.42793"
       y="15.846616"
       id="text55470-2-7-8"><tspan
         sodipodi:role="line"
         id="tspan55468-7-4-6"
         style="font-style:normal;font-variant:normal;font-weight:normal;font-stretch:normal;font-size:3.52778px;font-family:'DejaVu Sans';-inkscape-font-specification:'DejaVu Sans';stroke-width:0.264583"
         x="107.42793"
         y="15.846616">564</tspan></text>
  </g>
  <g
     inkscape:groupmode="layer"
     id="layer6"
     inkscape:label="Cones batonnet"
     style="display:inline;opacity:1">
    <path
       style="fill:none;stroke:#000000;stroke-width:0.5;stroke-linecap:round;stroke-linejoin:round;stroke-miterlimit:4;stroke-dasharray:2, 2;stroke-dashoffset:0;stroke-opacity:1"
       d="m 40.858483,59.795156 c -0.09048,-0.419008 7.866924,-0.73684 11.246538,-2.026686 4.01114,-1.53087 7.406789,-4.478531 10.292082,-7.657822 5.212234,-5.743337 9.257429,-12.444237 13.496221,-19.305898 1.770265,-2.865671 5.712411,-6.279496 8.153209,-8.335519 5.05124,-4.254954 8.638919,-1.013321 10.730797,3.200571 2.685645,5.409997 5.44699,11.419858 7.69118,16.942304 2.7838,6.850275 4.34335,13.827306 7.97706,20.504731 3.94076,7.241649 3.99406,7.062911 7.05085,9.981271 1.07206,1.023516 3.29955,2.674222 3.29955,2.674222"
       id="path165487"
       sodipodi:nodetypes="cssssssssc" />
    <text
       xml:space="preserve"
       style="font-weight:200;font-size:4.23333px;line-height:1.25;font-family:'DejaVu Sans';-inkscape-font-specification:'DejaVu Sans, Ultra-Light';display:inline;stroke-width:0.264583"
       x="114.28195"
       y="68.778709"
       id="text107729-0-4-2"><tspan
         sodipodi:role="line"
         id="tspan107727-3-9-5"
         style="font-style:normal;font-variant:normal;font-weight:normal;font-stretch:normal;font-family:'DejaVu Sans';-inkscape-font-specification:'DejaVu Sans';fill:#000000;fill-opacity:1;stroke-width:0.264583"
         x="114.28195"
         y="68.778709">R</tspan></text>
    <path
       style="display:inline;fill:none;stroke:#000000;stroke-width:0.312103px;stroke-linecap:round;stroke-linejoin:miter;stroke-opacity:1"
       d="m 88.820156,16.876364 v 2.7475"
       id="path65739-38-2-2-0" />
    <text
       xml:space="preserve"
       style="font-weight:200;font-size:3.52778px;line-height:1.25;font-family:'DejaVu Sans';-inkscape-font-specification:'DejaVu Sans, Ultra-Light';display:inline;stroke-width:0.264583"
       x="85.487946"
       y="15.846616"
       id="text55470-2-7-89"><tspan
         sodipodi:role="line"
         id="tspan55468-7-4-2"
         style="font-style:normal;font-variant:normal;font-weight:normal;font-stretch:normal;font-size:3.52778px;font-family:'DejaVu Sans';-inkscape-font-specification:'DejaVu Sans';stroke-width:0.264583"
         x="85.487946"
         y="15.846616">498</tspan></text>
  </g>
  <g
     inkscape:groupmode="layer"
     id="layer2"
     inkscape:label="axes"
     style="opacity:1">
    <path
       style="fill:none;stroke:#000000;stroke-width:0.264583px;stroke-linecap:round;stroke-linejoin:miter;stroke-opacity:1"
       d="m 142.6399,78.480364 v 1.974545"
       id="path65739-65" />
    <path
       style="fill:none;stroke:#000000;stroke-width:0.264583px;stroke-linecap:round;stroke-linejoin:miter;stroke-opacity:1"
       d="m 140.49298,78.480364 v 1.974545"
       id="path65739-50" />
    <path
       style="fill:none;stroke:#000000;stroke-width:0.264583px;stroke-linecap:round;stroke-linejoin:miter;stroke-opacity:1"
       d="m 136.02869,78.480364 v 1.974545"
       id="path65739-63" />
    <path
       style="fill:none;stroke:#000000;stroke-width:0.264583px;stroke-linecap:round;stroke-linejoin:miter;stroke-opacity:1"
       d="m 138.37012,78.480364 v 1.974545"
       id="path65739-761" />
    <path
       style="fill:none;stroke:#000000;stroke-width:0.264583px;stroke-linecap:round;stroke-linejoin:miter;stroke-opacity:1"
       d="m 131.55552,78.480364 v 1.974545"
       id="path65739-59" />
    <path
       style="fill:none;stroke:#000000;stroke-width:0.264583px;stroke-linecap:round;stroke-linejoin:miter;stroke-opacity:1"
       d="m 129.42869,78.480364 v 1.974545"
       id="path65739-56" />
    <path
       style="fill:none;stroke:#000000;stroke-width:0.264583px;stroke-linecap:round;stroke-linejoin:miter;stroke-opacity:1"
       d="m 126.80778,78.480364 v 1.974545"
       id="path65739-083" />
    <path
       style="fill:none;stroke:#000000;stroke-width:0.264583px;stroke-linecap:round;stroke-linejoin:miter;stroke-opacity:1"
       d="m 124.27324,78.480364 v 1.974545"
       id="path65739-15" />
    <path
       style="fill:none;stroke:#000000;stroke-width:0.264583px;stroke-linecap:round;stroke-linejoin:miter;stroke-opacity:1"
       d="m 112.99359,78.480364 v 1.974545"
       id="path65739-04" />
    <path
       style="fill:none;stroke:#000000;stroke-width:0.264583px;stroke-linecap:round;stroke-linejoin:miter;stroke-opacity:1"
       d="m 106.61584,78.480364 v 1.974545"
       id="path65739-35" />
    <path
       style="fill:none;stroke:#000000;stroke-width:0.264583px;stroke-linecap:round;stroke-linejoin:miter;stroke-opacity:1"
       d="m 103.75552,78.480364 v 1.974545"
       id="path65739-6" />
    <path
       style="fill:none;stroke:#000000;stroke-width:0.264583px;stroke-linecap:round;stroke-linejoin:miter;stroke-opacity:1"
       d="m 93.038072,78.480364 v 1.974545"
       id="path65739-51" />
    <path
       style="fill:none;stroke:#000000;stroke-width:0.264583px;stroke-linecap:round;stroke-linejoin:miter;stroke-opacity:1"
       d="m 96.514001,78.480364 v 1.974545"
       id="path65739-0" />
    <path
       style="fill:none;stroke:#000000;stroke-width:0.264583px;stroke-linecap:round;stroke-linejoin:miter;stroke-opacity:1"
       d="m 100.30372,78.480364 v 1.974545"
       id="path65739-87" />
    <path
       style="fill:none;stroke:#000000;stroke-width:0.264583px;stroke-linecap:round;stroke-linejoin:miter;stroke-opacity:1"
       d="m 81.137868,78.480364 v 1.974545"
       id="path65739-1" />
    <path
       style="fill:none;stroke:#000000;stroke-width:0.264583px;stroke-linecap:round;stroke-linejoin:miter;stroke-opacity:1"
       d="m 85.410354,78.480364 v 1.974545"
       id="path65739-33" />
    <path
       style="fill:none;stroke:#000000;stroke-width:0.312103px;stroke-linecap:round;stroke-linejoin:miter;stroke-opacity:1"
       d="m 89.200073,78.504124 v 2.7475"
       id="path65739-38" />
    <path
       style="fill:none;stroke:#000000;stroke-width:0.264583px;stroke-linecap:round;stroke-linejoin:miter;stroke-opacity:1"
       d="m 76.817097,78.480364 v 1.974545"
       id="path65739-57" />
    <path
       style="fill:none;stroke:#000000;stroke-width:0.264583px;stroke-linecap:round;stroke-linejoin:miter;stroke-opacity:1"
       d="m 46.595705,78.480364 v 1.974545"
       id="path65739-2" />
    <path
       style="fill:none;stroke:#000000;stroke-width:0.264583px;stroke-linecap:round;stroke-linejoin:miter;stroke-opacity:1"
       d="m 52.064677,78.480364 v 1.974545"
       id="path65739-5" />
    <path
       style="fill:none;stroke:#000000;stroke-width:0.264583px;stroke-linecap:round;stroke-linejoin:miter;stroke-opacity:1"
       d="m 34.260936,78.480364 v 1.974545"
       id="path65739-9" />
    <path
       style="fill:none;stroke:#000000;stroke-width:0.264583px;stroke-linecap:round;stroke-linejoin:miter;stroke-opacity:1"
       d="m 27.767682,78.480364 v 1.974545"
       id="path65739-3" />
    <path
       style="fill:none;stroke:#000000;stroke-width:0.3;stroke-linecap:round;stroke-linejoin:bevel;stroke-opacity:1;stroke-miterlimit:4;stroke-dasharray:none"
       d="M 14.929774,78.480364 H 144.98935"
       id="path1049" />
    <path
       style="fill:none;stroke:#000000;stroke-width:0.3;stroke-linecap:round;stroke-linejoin:miter;stroke-opacity:1;stroke-miterlimit:4;stroke-dasharray:none"
       d="M 17.847393,9.4486396 V 78.48246"
       id="path1051" />
    <path
       style="fill:none;stroke:#000000;stroke-width:0.264583px;stroke-linecap:round;stroke-linejoin:miter;stroke-opacity:1"
       d="m 15.066186,49.438858 h 2.781207"
       id="path1053-3" />
    <path
       style="fill:none;stroke:#000000;stroke-width:0.264583px;stroke-linecap:round;stroke-linejoin:miter;stroke-opacity:1"
       d="m 15.066186,20.412128 h 2.781207"
       id="path1053-3-1" />
    <text
       xml:space="preserve"
       style="font-style:normal;font-variant:normal;font-weight:normal;font-stretch:normal;font-size:3.52778px;line-height:1.25;font-family:'DejaVu Sans';-inkscape-font-specification:'DejaVu Sans';font-variant-ligatures:normal;font-variant-caps:normal;font-variant-numeric:normal;font-variant-east-asian:normal;fill:#000000;fill-opacity:1;stroke:none;stroke-width:0.111029"
       x="59.500214"
       y="101.98002"
       id="text2731"
       transform="scale(1.0764385,0.92898944)"><tspan
         sodipodi:role="line"
         id="tspan2729"
         style="font-style:normal;font-variant:normal;font-weight:normal;font-stretch:normal;font-size:3.52778px;font-family:'DejaVu Sans';-inkscape-font-specification:'DejaVu Sans';font-variant-ligatures:normal;font-variant-caps:normal;font-variant-numeric:normal;font-variant-east-asian:normal;stroke-width:0.111029"
         x="59.500214"
         y="101.98002">Longueur d'onde (nm)</tspan></text>
    <text
       xml:space="preserve"
       style="font-style:normal;font-variant:normal;font-weight:normal;font-stretch:normal;font-size:3.52778px;line-height:1.25;font-family:'DejaVu Sans';-inkscape-font-specification:'DejaVu Sans';font-variant-ligatures:normal;font-variant-caps:normal;font-variant-numeric:normal;font-variant-east-asian:normal;fill:#000000;fill-opacity:1;stroke:none;stroke-width:0.111029"
       x="-64.748886"
       y="5.9497623"
       id="text2731-4"
       transform="matrix(0,-1.0764385,0.92898944,0,0,0)"><tspan
         sodipodi:role="line"
         id="tspan2729-4"
         style="font-style:normal;font-variant:normal;font-weight:normal;font-stretch:normal;font-size:3.52778px;font-family:'DejaVu Sans';-inkscape-font-specification:'DejaVu Sans';font-variant-ligatures:normal;font-variant-caps:normal;font-variant-numeric:normal;font-variant-east-asian:normal;stroke-width:0.111029"
         x="-64.748886"
         y="5.9497623">Absorbance normalisée</tspan><tspan
         sodipodi:role="line"
         style="font-style:normal;font-variant:normal;font-weight:normal;font-stretch:normal;font-size:3.52778px;font-family:'DejaVu Sans';-inkscape-font-specification:'DejaVu Sans';font-variant-ligatures:normal;font-variant-caps:normal;font-variant-numeric:normal;font-variant-east-asian:normal;stroke-width:0.111029"
         x="-64.748886"
         y="10.359488"
         id="tspan44878" /></text>
    <text
       xml:space="preserve"
       style="font-weight:200;font-size:3.52778px;line-height:1.25;font-family:'DejaVu Sans';-inkscape-font-specification:'DejaVu Sans, Ultra-Light';stroke-width:0.264583"
       x="7.2895975"
       y="21.695425"
       id="text47786"><tspan
         sodipodi:role="line"
         id="tspan47784"
         style="font-size:3.52778px;stroke-width:0.264583"
         x="7.2895975"
         y="21.695425">100</tspan></text>
    <text
       xml:space="preserve"
       style="font-weight:200;font-size:3.52778px;line-height:1.25;font-family:'DejaVu Sans';-inkscape-font-specification:'DejaVu Sans, Ultra-Light';stroke-width:0.264583"
       x="9.5340729"
       y="50.722157"
       id="text55470"><tspan
         sodipodi:role="line"
         id="tspan55468"
         style="font-size:3.52778px;stroke-width:0.264583"
         x="9.5340729"
         y="50.722157">50</tspan></text>
    <text
       xml:space="preserve"
       style="font-weight:200;font-size:3.52778px;line-height:1.25;font-family:'DejaVu Sans';-inkscape-font-specification:'DejaVu Sans, Ultra-Light';stroke-width:0.264583"
       x="11.778549"
       y="79.763664"
       id="text55470-0"
       inkscape:transform-center-x="0.38659303"
       inkscape:transform-center-y="-5.7755113"><tspan
         sodipodi:role="line"
         id="tspan55468-4"
         style="font-size:3.52778px;stroke-width:0.264583"
         x="11.778549"
         y="79.763664">0</tspan></text>
    <text
       xml:space="preserve"
       style="font-weight:200;font-size:3.52778px;line-height:1.25;font-family:'DejaVu Sans';-inkscape-font-specification:'DejaVu Sans, Ultra-Light';stroke-width:0.264583"
       x="37.30732"
       y="85.7687"
       id="text55470-2"><tspan
         sodipodi:role="line"
         id="tspan55468-7"
         style="font-size:3.52778px;stroke-width:0.264583"
         x="37.30732"
         y="85.7687">400</tspan></text>
    <text
       xml:space="preserve"
       style="font-weight:200;font-size:3.52778px;line-height:1.25;font-family:'DejaVu Sans';-inkscape-font-specification:'DejaVu Sans, Ultra-Light';stroke-width:0.264583"
       x="85.823112"
       y="85.7687"
       id="text55470-4"><tspan
         sodipodi:role="line"
         id="tspan55468-0"
         style="font-size:3.52778px;stroke-width:0.264583"
         x="85.823112"
         y="85.7687">500</tspan></text>
    <text
       xml:space="preserve"
       style="font-weight:200;font-size:3.52778px;line-height:1.25;font-family:'DejaVu Sans';-inkscape-font-specification:'DejaVu Sans, Ultra-Light';stroke-width:0.264583"
       x="118.33504"
       y="85.7687"
       id="text55470-3"><tspan
         sodipodi:role="line"
         id="tspan55468-2"
         style="font-size:3.52778px;stroke-width:0.264583"
         x="118.33504"
         y="85.7687">600</tspan></text>
    <text
       xml:space="preserve"
       style="font-weight:200;font-size:3.52778px;line-height:1.25;font-family:'DejaVu Sans';-inkscape-font-specification:'DejaVu Sans, Ultra-Light';stroke-width:0.264583"
       x="141.46391"
       y="85.7687"
       id="text55470-8"><tspan
         sodipodi:role="line"
         id="tspan55468-03"
         style="font-size:3.52778px;stroke-width:0.264583"
         x="141.46391"
         y="85.7687">700</tspan></text>
    <path
       style="fill:none;stroke:#000000;stroke-width:0.264583px;stroke-linecap:round;stroke-linejoin:miter;stroke-opacity:1"
       d="m 20.34123,78.480364 v 1.974545"
       id="path65739" />
    <path
       style="fill:none;stroke:#000000;stroke-width:0.264583px;stroke-linecap:round;stroke-linejoin:miter;stroke-opacity:1"
       d="m 57.444638,78.480364 v 1.974545"
       id="path65739-8" />
    <path
       style="fill:none;stroke:#000000;stroke-width:0.264583px;stroke-linecap:round;stroke-linejoin:miter;stroke-opacity:1"
       d="m 62.599525,78.480364 v 1.974545"
       id="path65739-90" />
    <path
       style="fill:none;stroke:#000000;stroke-width:0.264583px;stroke-linecap:round;stroke-linejoin:miter;stroke-opacity:1"
       d="m 67.547916,78.480364 v 1.974545"
       id="path65739-24" />
    <path
       style="fill:none;stroke:#000000;stroke-width:0.264583px;stroke-linecap:round;stroke-linejoin:miter;stroke-opacity:1"
       d="m 72.351476,78.480364 v 1.974545"
       id="path65739-76" />
    <path
       style="fill:none;stroke:#000000;stroke-width:0.264583px;stroke-linecap:round;stroke-linejoin:miter;stroke-opacity:1"
       d="m 110.04124,78.480364 v 1.974545"
       id="path65739-08" />
    <path
       style="fill:none;stroke:#000000;stroke-width:0.264583px;stroke-linecap:round;stroke-linejoin:miter;stroke-opacity:1"
       d="m 115.87654,78.480364 v 1.974545"
       id="path65739-11" />
    <path
       style="fill:none;stroke:#000000;stroke-width:0.264583px;stroke-linecap:round;stroke-linejoin:miter;stroke-opacity:1"
       d="m 118.84208,78.480364 v 1.974545"
       id="path65739-359" />
    <path
       style="fill:none;stroke:#000000;stroke-width:0.264583px;stroke-linecap:round;stroke-linejoin:miter;stroke-opacity:1"
       d="m 133.87263,78.480364 v 1.974545"
       id="path65739-907" />
    <path
       style="fill:none;stroke:#000000;stroke-width:0.312103px;stroke-linecap:round;stroke-linejoin:miter;stroke-opacity:1"
       d="m 40.596536,78.504124 v 2.7475"
       id="path65739-38-2" />
    <path
       style="fill:none;stroke:#000000;stroke-width:0.312103px;stroke-linecap:round;stroke-linejoin:miter;stroke-opacity:1"
       d="m 121.70919,78.504124 v 2.7475"
       id="path65739-38-26" />
    <path
       style="fill:none;stroke:#000000;stroke-width:0.312103px;stroke-linecap:round;stroke-linejoin:miter;stroke-opacity:1"
       d="m 144.81123,78.504124 v 2.747501"
       id="path65739-38-9" />
    <text
       xml:space="preserve"
       style="font-weight:200;font-size:2.82222px;line-height:1.25;font-family:'DejaVu Sans';-inkscape-font-specification:'DejaVu Sans, Ultra-Light';stroke-width:0.264583"
       x="35.184231"
       y="89.614014"
       id="text81175"><tspan
         sodipodi:role="line"
         id="tspan81173"
         style="font-size:2.82222px;stroke-width:0.264583"
         x="35.184231"
         y="89.614014">Violet</tspan></text>
    <text
       xml:space="preserve"
       style="font-weight:200;font-size:2.82222px;line-height:1.25;font-family:'DejaVu Sans';-inkscape-font-specification:'DejaVu Sans, Ultra-Light';stroke-width:0.264583"
       x="75.889389"
       y="89.345985"
       id="text81175-7"><tspan
         sodipodi:role="line"
         id="tspan81173-0"
         style="font-size:2.82222px;stroke-width:0.264583"
         x="75.889389"
         y="89.345985">Cyan</tspan></text>
    <text
       xml:space="preserve"
       style="font-weight:200;font-size:2.82222px;line-height:1.25;font-family:'DejaVu Sans';-inkscape-font-specification:'DejaVu Sans, Ultra-Light';stroke-width:0.264583"
       x="94.908936"
       y="89.574051"
       id="text86326"><tspan
         sodipodi:role="line"
         id="tspan86324"
         style="font-size:2.82222px;stroke-width:0.264583"
         x="94.908936"
         y="89.574051">Vert </tspan></text>
    <text
       xml:space="preserve"
       style="font-weight:200;font-size:2.82222px;line-height:1.25;font-family:'DejaVu Sans';-inkscape-font-specification:'DejaVu Sans, Ultra-Light';stroke-width:0.264583"
       x="110.28827"
       y="89.343231"
       id="text87474"><tspan
         sodipodi:role="line"
         id="tspan87472"
         style="font-size:2.82222px;stroke-width:0.264583"
         x="110.28827"
         y="89.343231">Jaune</tspan></text>
    <text
       xml:space="preserve"
       style="font-weight:200;font-size:2.82222px;line-height:1.25;font-family:'DejaVu Sans';-inkscape-font-specification:'DejaVu Sans, Ultra-Light';stroke-width:0.264583"
       x="128.91054"
       y="89.300514"
       id="text88746"><tspan
         sodipodi:role="line"
         id="tspan88744"
         style="font-size:2.82222px;stroke-width:0.264583"
         x="128.91054"
         y="89.300514">Rouge</tspan></text>
    <text
       xml:space="preserve"
       style="font-weight:200;font-size:2.82222px;line-height:1.25;font-family:'DejaVu Sans';-inkscape-font-specification:'DejaVu Sans, Ultra-Light';stroke-width:0.264583"
       x="55.787933"
       y="89.617462"
       id="text89674"><tspan
         sodipodi:role="line"
         id="tspan89672"
         style="font-size:2.82222px;stroke-width:0.264583"
         x="55.787933"
         y="89.617462">Bleu</tspan></text>
  </g>
</svg>
